<?xml version="1.0" encoding="UTF-8" standalone="no"?>
<svg
   xmlns:dc="http://purl.org/dc/elements/1.1/"
   xmlns:cc="http://creativecommons.org/ns#"
   xmlns:rdf="http://www.w3.org/1999/02/22-rdf-syntax-ns#"
   xmlns:svg="http://www.w3.org/2000/svg"
   xmlns="http://www.w3.org/2000/svg"
   xmlns:sodipodi="http://sodipodi.sourceforge.net/DTD/sodipodi-0.dtd"
   xmlns:inkscape="http://www.inkscape.org/namespaces/inkscape"
   sodipodi:docname="shapes-f19.svg"
   inkscape:version="1.0beta1 (a4ee55bc41, 2019-11-15)"
   sodipodi:version="0.32"
   id="svg2794"
   viewBox="0 0 300 67"
   height="67"
   width="300"
   version="1.1">
  <defs
     id="defs3" />
  <sodipodi:namedview
     inkscape:window-maximized="1"
     inkscape:window-y="27"
     inkscape:window-x="54"
     inkscape:window-height="1016"
     inkscape:window-width="1866"
     inkscape:guide-bbox="true"
     showguides="true"
     units="px"
     showgrid="false"
     inkscape:document-rotation="0"
     inkscape:current-layer="layer1"
     inkscape:document-units="px"
     inkscape:cy="111.09773"
     inkscape:cx="131.73592"
     inkscape:zoom="2.8"
     inkscape:pageshadow="2"
     inkscape:pageopacity="0.0"
     borderopacity="1.0"
     bordercolor="#666666"
     pagecolor="#ffffff"
     id="base"
     inkscape:lockguides="true" />
  <metadata
     id="metadata4">
    <rdf:RDF>
      <cc:Work
         rdf:about="">
        <dc:format>image/svg+xml</dc:format>
        <dc:type
           rdf:resource="http://purl.org/dc/dcmitype/StillImage" />
        <dc:title></dc:title>
      </cc:Work>
    </rdf:RDF>
  </metadata>
  <g
     id="layer1"
     inkscape:groupmode="layer"
     inkscape:label="Layer 1">
    <text
       id="text2848"
       y="6"
       x="263.96066"
       style="font-style:normal;font-variant:normal;font-weight:normal;font-stretch:normal;line-height:0%;font-family:'Liberation Sans',Arial,sans-serif;writing-mode:lr-tb;text-anchor:start;fill:#000000;fill-opacity:1;stroke:none;stroke-width:1pt;stroke-linecap:butt;stroke-linejoin:miter;stroke-opacity:1"
       xml:space="preserve"><tspan
         y="6"
         x="263.96066"
         id="tspan2853"
         sodipodi:role="line"
         style="font-size:6px;line-height:1.1">+0.2</tspan></text>
    <text
       id="text2841"
       y="6"
       x="202.69716"
       style="font-style:normal;font-variant:normal;font-weight:normal;font-stretch:normal;line-height:0%;font-family:'Liberation Sans',Arial,sans-serif;writing-mode:lr-tb;text-anchor:start;fill:#000000;fill-opacity:1;stroke:none;stroke-width:1pt;stroke-linecap:butt;stroke-linejoin:miter;stroke-opacity:1"
       xml:space="preserve"><tspan
         y="6"
         x="202.69716"
         id="tspan2846"
         sodipodi:role="line"
         style="font-size:6px;line-height:1.1">+0.1</tspan></text>
    <text
       id="text2833"
       y="6"
       x="141.22896"
       style="font-style:normal;font-variant:normal;font-weight:normal;font-stretch:normal;line-height:0%;font-family:'Liberation Sans',Arial,sans-serif;writing-mode:lr-tb;text-anchor:start;fill:#000000;fill-opacity:1;stroke:none;stroke-width:1pt;stroke-linecap:butt;stroke-linejoin:miter;stroke-opacity:1"
       xml:space="preserve"><tspan
         y="6"
         x="141.22896"
         id="tspan2835"
         sodipodi:role="line"
         style="font-size:6px;line-height:1.1">0</tspan></text>
    <text
       id="text2814"
       y="6"
       x="72.826973"
       style="font-style:normal;font-variant:normal;font-weight:normal;font-stretch:normal;line-height:0%;font-family:'Liberation Sans',Arial,sans-serif;writing-mode:lr-tb;text-anchor:start;fill:#000000;fill-opacity:1;stroke:none;stroke-width:1pt;stroke-linecap:butt;stroke-linejoin:miter;stroke-opacity:1"
       xml:space="preserve"><tspan
         y="6"
         x="72.826973"
         id="tspan2821"
         sodipodi:role="line"
         style="font-size:6px;line-height:1.1">−0.1</tspan></text>
    <text
       id="text2805"
       y="6"
       x="16.134069"
       style="font-style:normal;font-variant:normal;font-weight:normal;font-stretch:normal;line-height:0%;font-family:'Liberation Sans',Arial,sans-serif;writing-mode:lr-tb;text-anchor:start;fill:#000000;fill-opacity:1;stroke:none;stroke-width:1pt;stroke-linecap:butt;stroke-linejoin:miter;stroke-opacity:1"
       xml:space="preserve"><tspan
         y="6"
         x="16.134069"
         id="tspan2807"
         sodipodi:role="line"
         style="font-size:6px;line-height:1.1">−0.2</tspan></text>
    <path
       transform="translate(179.99625,-4686.543)"
       d="m 52.391049,4738.4497 c -1.669768,3.0151 -13.281564,-7.4782 -16.028238,-5.6143 -2.649008,1.7976 -0.863606,17.7432 -4.003109,17.8875 -3.255252,0.1497 -2.57491,-12.0134 -5.955929,-13.1902 -3.260798,-1.1351 -14.776544,6.4465 -17.2954633,4.5531 -2.6117882,-1.9632 7.9554273,-13.1335 6.4100203,-16.1278 -1.490457,-2.8879 -14.53872787,-2.1979 -14.6341034,-5.489 -0.0988919,-3.4124 15.2382444,0.055 17.4429054,-2.6425 2.126269,-2.6011 -5.476561,-14.4273 -2.51997,-15.7015 3.065597,-1.3213 6.260186,6.2503 9.496664,6.0002 3.121398,-0.2412 6.222156,-12.3591 9.377819,-11.5526 3.272008,0.8362 2.028146,16.2475 4.617864,18.556 2.497633,2.2264 14.237069,-5.2851 15.745809,-2.3349 1.564364,3.0591 -13.437966,10.222 -13.574448,13.7604 -0.131629,3.4125 12.530575,8.9876 10.920179,11.8956 z"
       inkscape:randomized="0.1"
       inkscape:rounded="0.22"
       inkscape:flatsided="false"
       sodipodi:arg2="1.0163215"
       sodipodi:arg1="0.53837452"
       sodipodi:r2="12.903711"
       sodipodi:r1="25.807421"
       sodipodi:cy="4723.0049"
       sodipodi:cx="28.926914"
       sodipodi:sides="7"
       id="path2797"
       style="color:#000000;fill:#ff6c2e;fill-opacity:1;fill-rule:evenodd;stroke:none;stroke-width:0.862873pt;stroke-linecap:butt;stroke-linejoin:miter;stroke-miterlimit:4;stroke-dashoffset:0;stroke-opacity:0.236923;marker:none;marker-start:none;marker-mid:none;marker-end:none"
       sodipodi:type="star" />
    <path
       d="m 167.30054,49.694627 c -1.83644,2.880737 -12.51222,-4.144656 -15.36302,-2.262087 -2.74944,1.81563 -0.0484,14.255268 -3.32484,14.60278 -3.39725,0.360324 -4.56082,-12.366597 -7.81012,-13.421684 -3.13376,-1.017569 -11.17538,8.850186 -13.48991,6.505221 -2.39987,-2.43142 6.82497,-11.276239 5.62396,-14.474478 -1.1583,-3.084519 -13.88709,-3.219267 -13.49681,-6.490902 0.40467,-3.392255 13.07142,-1.694643 14.82309,-4.627697 1.68938,-2.828761 -6.14154,-12.864545 -3.34033,-14.599243 2.90447,-1.798653 9.47482,9.163054 12.86012,8.703836 3.26493,-0.44289 6.22872,-12.822559 9.33148,-11.714056 3.21716,1.149371 -1.25651,13.120784 1.21323,15.481202 2.38191,2.276487 13.90862,-3.124924 14.9765,-0.0079 1.10725,3.231896 -11.04166,7.198296 -11.34726,10.600908 -0.29473,3.281622 11.11505,8.925842 9.34391,11.704147 z"
       inkscape:randomized="0"
       inkscape:rounded="0.22"
       inkscape:flatsided="false"
       sodipodi:arg2="1.0163215"
       sodipodi:arg1="0.53837452"
       sodipodi:r2="12.903711"
       sodipodi:r1="25.807421"
       sodipodi:cy="36.462101"
       sodipodi:cx="145.14375"
       sodipodi:sides="7"
       id="path2798"
       style="color:#000000;fill:#ff6c2e;fill-opacity:1;fill-rule:evenodd;stroke:none;stroke-width:0.862873pt;stroke-linecap:butt;stroke-linejoin:miter;stroke-miterlimit:4;stroke-dashoffset:0;stroke-opacity:0.236923;marker:none;marker-start:none;marker-mid:none;marker-end:none"
       sodipodi:type="star" />
    <path
       transform="translate(242.77612,-4686.543)"
       d="m 53.698397,4740.662 c -1.493449,3.1399 -14.049976,-10.8094 -16.693453,-8.9665 -2.549481,1.7773 -1.690858,21.2135 -4.68138,21.1722 -3.100778,-0.043 -0.592751,-11.6542 -4.10174,-12.9588 -3.384218,-1.2582 -18.4576549,4.0355 -21.101011,2.601 -2.7408129,-1.4874 9.054961,-15.0268 7.196075,-17.7811 -1.792789,-2.6563 -15.19313621,-1.2481 -15.7713956,-4.487 -0.5995791,-3.3583 17.4373436,1.7332 20.0627226,-0.6573 2.532026,-2.3055 -4.738573,-15.9975 -1.699607,-16.8039 3.151009,-0.8362 3.057841,3.3563 6.133205,3.2967 2.966011,-0.058 6.244555,-11.8954 9.424153,-11.3912 3.296826,0.5229 5.313479,19.3797 8.022505,21.6307 2.612699,2.171 14.591401,-7.3828 16.515114,-4.6617 1.994637,2.8215 -15.84733,13.2544 -15.801637,16.9198 0.04407,3.535 13.936796,9.0588 12.496449,12.0871 z"
       inkscape:randomized="0.2"
       inkscape:rounded="0.22"
       inkscape:flatsided="false"
       sodipodi:arg2="1.0163215"
       sodipodi:arg1="0.53837452"
       sodipodi:r2="12.903711"
       sodipodi:r1="25.807421"
       sodipodi:cy="4723.0049"
       sodipodi:cx="28.926914"
       sodipodi:sides="7"
       id="path2799"
       style="color:#000000;fill:#ff6c2e;fill-opacity:1;fill-rule:evenodd;stroke:none;stroke-width:0.862873pt;stroke-linecap:butt;stroke-linejoin:miter;stroke-miterlimit:4;stroke-dashoffset:0;stroke-opacity:0.236923;marker:none;marker-start:none;marker-mid:none;marker-end:none"
       sodipodi:type="star" />
    <path
       transform="translate(48.89403,-4686.543)"
       d="m 49.776354,4734.0251 c -1.992944,2.7374 -11.74198,-0.8088 -14.697809,1.0901 -2.850727,1.8315 0.753238,10.7506 -2.646567,11.3181 -3.525151,0.5884 -6.550282,-12.7138 -9.664307,-13.6531 -3.003298,-0.906 -7.654423,11.2327 -9.684368,8.4573 -2.104786,-2.8777 5.6678,-9.4591 4.837911,-12.8212 -0.80038,-3.2425 -13.2276472,-4.312 -12.3595189,-7.4928 0.9001349,-3.2982 10.9254499,-3.5171 12.2032719,-6.6129 1.232385,-2.9857 -6.73398,-11.3206 -4.160696,-13.4969 2.668156,-2.2566 12.70337,12.0937 16.223582,11.4074 3.395042,-0.6619 6.264419,-13.2831 9.28515,-11.8755 3.132101,1.4595 -4.540728,9.9996 -2.191418,12.4064 2.265775,2.3213 13.596815,-0.8997 14.207198,2.319 0.632888,3.3373 -8.65882,4.1823 -9.12007,7.4414 -0.444849,3.1433 9.68972,8.8727 7.767641,11.5127 z"
       inkscape:randomized="-0.1"
       inkscape:rounded="0.22"
       inkscape:flatsided="false"
       sodipodi:arg2="1.0163215"
       sodipodi:arg1="0.53837452"
       sodipodi:r2="12.903711"
       sodipodi:r1="25.807421"
       sodipodi:cy="4723.0049"
       sodipodi:cx="28.926914"
       sodipodi:sides="7"
       id="path2800"
       style="color:#000000;fill:#ff6c2e;fill-opacity:1;fill-rule:evenodd;stroke:none;stroke-width:0.862873pt;stroke-linecap:butt;stroke-linejoin:miter;stroke-miterlimit:4;stroke-dashoffset:0;stroke-opacity:0.236923;marker:none;marker-start:none;marker-mid:none;marker-end:none"
       sodipodi:type="star" />
    <path
       transform="translate(-7.7989213,-4686.543)"
       d="m 48.469006,4731.8129 c -2.138815,2.5856 -10.970891,2.5293 -14.032594,4.4423 -2.952837,1.8449 1.539747,7.2299 -1.968296,8.0333 -3.63738,0.8329 -8.543102,-13.0548 -11.518496,-13.8846 -2.869597,-0.8003 -4.211516,13.58 -5.87882,10.4095 -1.728776,-3.2874 4.488629,-7.6854 4.051856,-11.1679 -0.421241,-3.3586 -12.5499688,-5.4742 -11.2222267,-8.4948 1.3766941,-3.132 8.7888357,-5.4137 9.5834547,-8.5981 0.766365,-3.0711 -7.256202,-9.807 -4.981059,-12.3946 2.359024,-2.6829 15.947401,15.0414 19.587042,14.111 3.510224,-0.8972 6.32914,-13.7378 9.238815,-12.0369 3.016951,1.7635 -7.824744,6.8838 -5.596058,9.3317 2.149438,2.3608 13.292148,1.3918 13.437892,4.6458 0.151118,3.3739 -6.289767,1.173 -6.892881,4.282 -0.581668,2.9985 8.254134,8.8275 6.191371,11.3213 z"
       inkscape:randomized="-0.2"
       inkscape:rounded="0.22"
       inkscape:flatsided="false"
       sodipodi:arg2="1.0163215"
       sodipodi:arg1="0.53837452"
       sodipodi:r2="12.903711"
       sodipodi:r1="25.807421"
       sodipodi:cy="4723.0049"
       sodipodi:cx="28.926914"
       sodipodi:sides="7"
       id="path2801"
       style="color:#000000;fill:#ff6c2e;fill-opacity:1;fill-rule:evenodd;stroke:none;stroke-width:0.862873pt;stroke-linecap:butt;stroke-linejoin:miter;stroke-miterlimit:4;stroke-dashoffset:0;stroke-opacity:0.236923;marker:none;marker-start:none;marker-mid:none;marker-end:none"
       sodipodi:type="star" />
  </g>
</svg>
