<?xml version="1.0" encoding="UTF-8" standalone="no"?>
<svg
   xmlns:dc="http://purl.org/dc/elements/1.1/"
   xmlns:cc="http://creativecommons.org/ns#"
   xmlns:rdf="http://www.w3.org/1999/02/22-rdf-syntax-ns#"
   xmlns:svg="http://www.w3.org/2000/svg"
   xmlns="http://www.w3.org/2000/svg"
   xmlns:sodipodi="http://sodipodi.sourceforge.net/DTD/sodipodi-0.dtd"
   xmlns:inkscape="http://www.inkscape.org/namespaces/inkscape"
   inkscape:output_extension="org.inkscape.output.svg.inkscape"
   sodipodi:version="0.32"
   sodipodi:docname="interpolate-f01.svg"
   height="41"
   width="300"
   inkscape:version="1.0beta1 (08a003b, 2019-11-10)"
   version="1.1"
   viewBox="0 0 300 41"
   id="svg15699">
  <defs
     id="defs15701" />
  <sodipodi:namedview
     inkscape:lockguides="true"
     id="base"
     pagecolor="#ffffff"
     bordercolor="#666666"
     borderopacity="1.0"
     inkscape:pageopacity="0.0"
     inkscape:pageshadow="2"
     inkscape:zoom="1.4"
     inkscape:cx="160"
     inkscape:cy="20.5"
     inkscape:document-units="px"
     inkscape:current-layer="layer1"
     inkscape:document-rotation="0"
     showgrid="false"
     units="px"
     showguides="true"
     inkscape:guide-bbox="true"
     inkscape:window-width="1866"
     inkscape:window-height="1016"
     inkscape:window-x="54"
     inkscape:window-y="27"
     inkscape:window-maximized="1" />
  <metadata
     id="metadata15704">
    <rdf:RDF>
      <cc:Work
         rdf:about="">
        <dc:format>image/svg+xml</dc:format>
        <dc:type
           rdf:resource="http://purl.org/dc/dcmitype/StillImage" />
        <dc:title></dc:title>
      </cc:Work>
    </rdf:RDF>
  </metadata>
  <g
     inkscape:groupmode="layer"
     id="layer1"
     inkscape:label="Layer 1">
    <path
       inkscape:connector-curvature="0"
       d="m 30.289584,2.0240789 c 10.11909,0 18.265505,8.1464201 18.265505,18.2655101 0,10.11909 -8.146415,18.2655 -18.265505,18.2655 -10.11909,0 -18.265505,-8.14641 -18.265505,-18.2655 0,-10.11909 8.146415,-18.2655101 18.265505,-18.2655101 z"
       style="fill:#00ccff;fill-opacity:1;stroke:#2e75ac;stroke-width:4.04816;stroke-linejoin:round;stroke-miterlimit:4;stroke-opacity:1"
       id="rect4368" />
    <path
       inkscape:connector-curvature="0"
       d="m 255.43989,2.0240789 c 10.11909,0 18.2655,8.1464201 18.2655,18.2655101 0,10.11909 -8.14641,18.2655 -18.2655,18.2655 -10.11909,0 -18.26551,-8.14641 -18.26551,-18.2655 0,-10.11909 8.14642,-18.2655101 18.26551,-18.2655101 z"
       style="fill:#00ccff;fill-opacity:1;stroke:#2e75ac;stroke-width:4.04816;stroke-linejoin:round;stroke-miterlimit:4;stroke-opacity:1"
       id="rect4370" />
  </g>
</svg>
