<?xml version="1.0" encoding="UTF-8" standalone="no"?>
<svg
   xmlns:dc="http://purl.org/dc/elements/1.1/"
   xmlns:cc="http://creativecommons.org/ns#"
   xmlns:rdf="http://www.w3.org/1999/02/22-rdf-syntax-ns#"
   xmlns:svg="http://www.w3.org/2000/svg"
   xmlns="http://www.w3.org/2000/svg"
   xmlns:xlink="http://www.w3.org/1999/xlink"
   xmlns:sodipodi="http://sodipodi.sourceforge.net/DTD/sodipodi-0.dtd"
   xmlns:inkscape="http://www.inkscape.org/namespaces/inkscape"
   sodipodi:docname="elements-f15.svg"
   inkscape:version="1.0beta1 (a4ee55bc41, 2019-11-15)"
   sodipodi:version="0.32"
   id="svg2344"
   viewBox="0 0 300 100"
   height="100"
   width="300"
   version="1.1">
  <defs
     id="defs3">
    <pattern
       patternTransform="matrix(0.01757232,0.01194719,-0.01194719,0.01757232,0.677932,47.349336)"
       id="pattern2540"
       xlink:href="#pattern2585"
       inkscape:collect="always" />
    <pattern
       patternTransform="matrix(0.06750206,0.02235137,-0.02235137,0.06750206,-4.5512287,56.850988)"
       id="pattern2530"
       xlink:href="#pattern2605"
       inkscape:collect="always" />
    <pattern
       patternTransform="matrix(0.00334133,-0.04533675,0.04533675,0.00334133,73.694196,102.98295)"
       id="pattern2527"
       xlink:href="#pattern3708"
       inkscape:collect="always" />
    <pattern
       patternTransform="matrix(0.04697372,0.04867216,-0.04867216,0.04697372,3.537997,67.234529)"
       id="pattern2524"
       xlink:href="#pattern3713"
       inkscape:collect="always" />
    <pattern
       patternTransform="matrix(-0.01360935,0.02817121,0.02817121,0.01360935,171.10399,17.317015)"
       id="pattern2521"
       xlink:href="#pattern3712"
       inkscape:collect="always" />
    <pattern
       patternTransform="matrix(0.01360935,0.02817121,-0.02817121,0.01360935,-21.300749,25.400188)"
       id="pattern2518"
       xlink:href="#pattern3710"
       inkscape:collect="always" />
    <pattern
       patternTransform="matrix(0.04697372,0.04867216,-0.04867216,0.04697372,166.54357,67.234529)"
       id="pattern2514"
       xlink:href="#pattern1878"
       inkscape:collect="always" />
    <pattern
       patternTransform="matrix(0.01360935,0.02817121,-0.02817121,0.01360935,141.70478,25.400188)"
       id="pattern2511"
       xlink:href="#pattern1880"
       inkscape:collect="always" />
    <pattern
       patternTransform="matrix(0.02113712,0.0642552,-0.0642552,0.02113712,196.26355,17.104145)"
       id="pattern2508"
       xlink:href="#pattern1887"
       inkscape:collect="always" />
    <pattern
       patternTransform="matrix(-0.01360935,0.02817121,0.02817121,0.01360935,334.1095,17.317015)"
       id="pattern2505"
       xlink:href="#pattern1879"
       inkscape:collect="always" />
    <pattern
       patternTransform="matrix(-0.00120097,0.06763185,-0.06763185,-0.00120097,134.0293,-3.8944459)"
       id="pattern2502"
       xlink:href="#pattern1884"
       inkscape:collect="always" />
    <pattern
       patternTransform="matrix(-0.0014106,0.07943734,-0.07943734,-0.0014106,151.75852,-4.0994681)"
       id="pattern2489"
       xlink:href="#pattern1889"
       inkscape:collect="always" />
    <linearGradient
       id="linearGradient2362">
      <stop
         id="stop2363"
         offset="0.0000000"
         style="stop-color:#00990f;stop-opacity:1.0000000;" />
      <stop
         id="stop2366"
         offset="1.0000000"
         style="stop-color:#00ff1a;stop-opacity:1.0000000;" />
    </linearGradient>
    <linearGradient
       id="linearGradient2606">
      <stop
         id="stop2607"
         offset="0.0000000"
         style="stop-color:#565c3b;stop-opacity:1.0000000;" />
      <stop
         id="stop2609"
         offset="1.0000000"
         style="stop-color:#9e96d0;stop-opacity:1.0000000;" />
    </linearGradient>
    <linearGradient
       id="linearGradient2370">
      <stop
         id="stop2371"
         offset="0.0000000"
         style="stop-color:#0c0099;stop-opacity:1.0000000;" />
      <stop
         id="stop2372"
         offset="1.0000000"
         style="stop-color:#0069ff;stop-opacity:1.0000000;" />
    </linearGradient>
    <pattern
       patternTransform="matrix(1.791325e-2,1.217899e-2,-1.217899e-2,1.791325e-2,7.869785,2842.633)"
       id="pattern3516"
       xlink:href="#pattern2410"
       inkscape:collect="always" />
    <pattern
       patternTransform="matrix(1.791325e-2,1.217899e-2,-1.217899e-2,1.791325e-2,7.869785,2840.002)"
       id="pattern2585"
       xlink:href="#pattern3516"
       inkscape:collect="always" />
    <linearGradient
       id="linearGradient1514">
      <stop
         id="stop1515"
         offset="0.0000000"
         style="stop-color:#484848;stop-opacity:1.0000000;" />
      <stop
         id="stop1631"
         offset="0.68666667"
         style="stop-color:#929292;stop-opacity:1.0000000;" />
      <stop
         id="stop1516"
         offset="1.0000000"
         style="stop-color:#d8d8d8;stop-opacity:1.0000000;" />
    </linearGradient>
    <linearGradient
       id="linearGradient1806">
      <stop
         id="stop1807"
         offset="0.0000000"
         style="stop-color:#000000;stop-opacity:0.40784314;" />
      <stop
         id="stop3276"
         offset="0.64777780"
         style="stop-color:#000000;stop-opacity:0.079096042;" />
      <stop
         id="stop1808"
         offset="1.0000000"
         style="stop-color:#000000;stop-opacity:0.0000000;" />
    </linearGradient>
    <pattern
       patternTransform="matrix(3.602221e-2,-6.290160e-2,6.290160e-2,3.602221e-2,5.039169,2849.688)"
       id="pattern2399"
       xlink:href="#pattern2397"
       inkscape:collect="always" />
    <pattern
       patternTransform="matrix(6.881172e-2,2.278502e-2,-2.278502e-2,6.881172e-2,5.039169,2849.688)"
       id="pattern2403"
       xlink:href="#pattern2399"
       inkscape:collect="always" />
    <pattern
       patternTransform="matrix(6.881172e-2,2.278502e-2,-2.278502e-2,6.881172e-2,2.539170,2849.688)"
       id="pattern2605"
       xlink:href="#pattern2403"
       inkscape:collect="always" />
    <pattern
       patternTransform="matrix(1.387339e-2,2.871778e-2,-2.871778e-2,1.387339e-2,151.6328,2817.627)"
       id="pattern1880"
       xlink:href="#pattern3710"
       inkscape:collect="always" />
    <pattern
       patternTransform="matrix(2.154722e-2,6.550186e-2,-6.550186e-2,2.154722e-2,207.2501,2809.170)"
       id="pattern1887"
       xlink:href="#pattern1884"
       inkscape:collect="always" />
    <pattern
       patternTransform="matrix(3.406157e-3,-4.621636e-2,4.621636e-2,3.406157e-3,82.30269,2896.715)"
       id="pattern3708"
       xlink:href="#pattern3706"
       inkscape:collect="always" />
    <pattern
       patternTransform="matrix(1.387339e-2,2.871778e-2,-2.871778e-2,1.387339e-2,-14.53532,2817.627)"
       id="pattern3710"
       xlink:href="#pattern3708"
       inkscape:collect="always" />
    <pattern
       patternTransform="matrix(-1.387339e-2,2.871778e-2,2.871778e-2,1.387339e-2,181.6024,2809.387)"
       id="pattern3712"
       xlink:href="#pattern3710"
       inkscape:collect="always" />
    <pattern
       patternTransform="matrix(-1.387339e-2,2.871778e-2,2.871778e-2,1.387339e-2,347.7705,2809.387)"
       id="pattern1879"
       xlink:href="#pattern3712"
       inkscape:collect="always" />
    <pattern
       patternTransform="matrix(3.111259e-2,-4.850659e-2,-4.850659e-2,-3.111259e-2,139.5469,2993.389)"
       id="pattern3180"
       xlink:href="#pattern3176"
       inkscape:collect="always" />
    <pattern
       patternTransform="matrix(2.588574e-2,-4.035758e-2,-4.035758e-2,-2.588574e-2,110.3458,3027.344)"
       id="pattern2598"
       xlink:href="#pattern3180"
       inkscape:collect="always" />
    <pattern
       patternTransform="matrix(8.058895e-2,-4.848785e-2,-4.848785e-2,-8.058895e-2,-100.9765,2912.705)"
       id="pattern3178"
       xlink:href="#pattern3176"
       inkscape:collect="always" />
    <pattern
       patternTransform="matrix(6.705017e-2,-4.034199e-2,-4.034199e-2,-6.705017e-2,-89.77020,2960.215)"
       id="pattern2599"
       xlink:href="#pattern3178"
       inkscape:collect="always" />
    <pattern
       patternTransform="matrix(4.937844e-2,-2.970946e-2,-2.970946e-2,-4.937844e-2,65.70686,2891.160)"
       id="pattern3176"
       xlink:href="#pattern3173"
       inkscape:collect="always" />
    <pattern
       patternTransform="matrix(4.937844e-2,-2.970946e-2,-2.970946e-2,-4.937844e-2,107.0526,2920.398)"
       id="pattern3181"
       xlink:href="#pattern3176"
       inkscape:collect="always" />
    <pattern
       patternTransform="matrix(4.108296e-2,-2.471833e-2,-2.471833e-2,-4.108296e-2,83.31043,2966.615)"
       id="pattern2596"
       xlink:href="#pattern3181"
       inkscape:collect="always" />
    <pattern
       id="pattern2650"
       patternTransform="matrix(0.235877,0.000000,0.000000,0.235877,23.89020,1385.940)"
       height="24.565200"
       width="24.565119"
       patternUnits="userSpaceOnUse">
      <path
         id="path2649"
         d="M 0.62500000,23.940200 L 23.940119,0.62500000"
         style="fill:none;fill-opacity:0.75000000;fill-rule:evenodd;stroke:#000000;stroke-width:1.0000000pt;stroke-linecap:butt;stroke-linejoin:miter;stroke-opacity:1.0000000;" />
    </pattern>
    <pattern
       patternTransform="matrix(0.235877,0.000000,0.000000,0.235877,7.403921,1355.414)"
       id="pattern2655"
       xlink:href="#pattern2650"
       inkscape:collect="always" />
    <pattern
       patternTransform="matrix(0.193713,0.134586,-0.134586,0.193713,7.403921,1377.914)"
       id="pattern2664"
       xlink:href="#pattern2655"
       inkscape:collect="always" />
    <pattern
       patternTransform="matrix(3.602221e-2,-6.290160e-2,6.290160e-2,3.602221e-2,7.403921,1401.211)"
       id="pattern2666"
       xlink:href="#pattern2664"
       inkscape:collect="always" />
    <pattern
       patternTransform="matrix(3.602221e-2,-6.290160e-2,6.290160e-2,3.602221e-2,5.039169,2839.013)"
       id="pattern2397"
       xlink:href="#pattern2666"
       inkscape:collect="always" />
    <pattern
       patternTransform="matrix(1.791325e-2,1.217899e-2,-1.217899e-2,1.791325e-2,7.869785,2889.957)"
       id="pattern2410"
       xlink:href="#pattern2397"
       inkscape:collect="always" />
    <pattern
       patternTransform="matrix(4.937844e-2,2.970946e-2,-2.970946e-2,4.937844e-2,7.869785,2842.513)"
       id="pattern3173"
       xlink:href="#pattern2410"
       inkscape:collect="always" />
    <pattern
       patternTransform="matrix(4.937844e-2,2.970946e-2,-2.970946e-2,4.937844e-2,50.08138,2871.272)"
       id="pattern3182"
       xlink:href="#pattern3173"
       inkscape:collect="always" />
    <pattern
       patternTransform="matrix(4.108296e-2,2.471833e-2,-2.471833e-2,4.108296e-2,35.91026,2925.742)"
       id="pattern2597"
       xlink:href="#pattern3182"
       inkscape:collect="always" />
    <pattern
       id="pattern3695"
       patternTransform="matrix(6.389029e-2,6.620037e-2,-6.620037e-2,6.389029e-2,11.88013,2864.769)"
       height="205.67261"
       width="291.92533"
       patternUnits="userSpaceOnUse">
      <path
         id="path3658"
         d="M 233.64408,85.642895 C 227.39177,85.642895 222.36355,100.53130 222.08158,119.08040 C 209.12080,106.88970 195.74839,100.31990 191.45658,104.61170 C 187.44777,108.62050 193.02978,120.58540 203.67533,132.70540 C 187.67801,133.77440 175.36283,138.27860 175.36283,143.92410 C 175.36283,149.85070 188.86658,154.56470 206.05033,155.29910 C 193.75465,168.31280 187.14594,181.80100 191.45658,186.11170 C 195.77049,190.42560 209.24626,183.80060 222.26908,171.48670 C 223.00208,188.67490 227.71641,202.17420 233.64408,202.17410 C 239.24712,202.17420 243.71634,190.05430 244.83158,174.23670 C 257.91112,186.66460 271.52855,193.35220 275.86283,189.01790 C 280.41164,184.46910 273.00926,169.72690 259.36283,156.08040 C 259.12461,155.84220 258.88293,155.68980 258.64408,155.45540 C 277.11391,155.14500 291.92533,150.15750 291.92533,143.92410 C 291.92533,137.95320 278.23321,133.19490 260.86283,132.51790 C 271.39971,120.46140 276.91376,108.60020 272.92533,104.61170 C 268.93690,100.62320 257.10685,106.16860 245.05033,116.70540 C 244.37477,99.330595 239.61606,85.642795 233.64408,85.642895 z "
         style="fill:#ff0000;fill-opacity:1.0000000;fill-rule:evenodd;stroke:none;stroke-width:2.2500000;stroke-linecap:butt;stroke-linejoin:miter;stroke-miterlimit:4.0000000;stroke-opacity:1.0000000;" />
      <path
         transform="translate(371.3076,-2712.318)"
         d="M -117.26799 2856.2305 A 20.394436 20.394436 0 1 0 -158.05687,2856.2305 A 20.394436 20.394436 0 1 0 -117.26799 2856.2305 z"
         sodipodi:ry="20.394436"
         sodipodi:rx="20.394436"
         sodipodi:cy="2856.2305"
         sodipodi:cx="-137.66243"
         id="path3667"
         style="fill:#cfe300;fill-opacity:1.0000000;fill-rule:evenodd;stroke:#000000;stroke-width:1.8750000;stroke-linecap:butt;stroke-linejoin:miter;stroke-miterlimit:4.0000000;stroke-opacity:0.40331492;"
         sodipodi:type="arc" />
      <path
         id="path3671"
         d="M 213.44854,13.665195 C 208.75738,9.5317950 195.14211,17.378595 182.66795,31.109695 C 181.00251,13.394695 175.31231,-0.37500500 169.25487,0.0078950027 C 163.59685,0.36559500 159.87522,13.033095 159.85026,29.164495 C 147.14065,19.390995 134.92280,14.629095 131.19062,18.864895 C 127.27261,23.311695 134.28821,35.775795 146.69581,47.686795 C 128.86705,49.322595 114.99159,55.073895 115.37614,61.157995 C 115.76103,67.246595 130.25172,71.184495 148.16342,70.554495 C 137.35048,83.935595 131.96344,97.180795 136.41108,101.09940 C 140.61502,104.80360 151.98064,98.664495 163.27425,87.533695 C 164.87199,105.50520 170.66815,119.52530 176.78556,119.13860 C 183.20572,118.73270 187.39756,102.77790 186.18008,83.517295 C 186.15882,83.181095 186.07823,82.906995 186.05398,82.573195 C 200.11724,94.550495 214.52754,100.60000 218.64837,95.923095 C 222.59567,91.443095 215.46802,78.821195 202.88245,66.829795 C 218.75876,64.749595 230.73730,59.495295 230.38151,53.865995 C 230.02571,48.236695 217.48353,44.576695 201.47167,44.512095 C 212.45107,31.029095 217.92942,17.613095 213.44854,13.665195 z "
         style="fill:#c70600;fill-opacity:1.0000000;fill-rule:evenodd;stroke:none;stroke-width:2.2500000;stroke-linecap:butt;stroke-linejoin:miter;stroke-miterlimit:4.0000000;stroke-opacity:1.0000000;" />
      <path
         transform="matrix(0.750308,0.661089,-0.661089,0.750308,2166.439,-1994.659)"
         d="M -117.26799 2856.2305 A 20.394436 20.394436 0 1 0 -158.05687,2856.2305 A 20.394436 20.394436 0 1 0 -117.26799 2856.2305 z"
         sodipodi:ry="20.394436"
         sodipodi:rx="20.394436"
         sodipodi:cy="2856.2305"
         sodipodi:cx="-137.66243"
         id="path3672"
         style="fill:#d3e900;fill-opacity:1.0000000;fill-rule:evenodd;stroke:#000000;stroke-width:1.8750000;stroke-linecap:butt;stroke-linejoin:miter;stroke-miterlimit:4.0000000;stroke-opacity:0.40331492;"
         sodipodi:type="arc" />
      <path
         id="path3673"
         d="M 98.080203,13.665095 C 93.389043,9.5316950 79.773773,17.378495 67.299613,31.109595 C 65.634173,13.394595 59.943973,-0.37510500 53.886533,0.0077950027 C 48.228513,0.36549500 44.506883,13.032995 44.481923,29.164395 C 31.772313,19.390895 19.554463,14.628995 15.822283,18.864795 C 11.904273,23.311595 18.919873,35.775695 31.327473,47.686695 C 13.498713,49.322495 -0.37674692,55.073795 0.0078030782,61.157895 C 0.39269308,67.246495 14.883383,71.184395 32.795083,70.554395 C 21.982143,83.935495 16.595103,97.180695 21.042743,101.09930 C 25.246683,104.80350 36.612303,98.664395 47.905913,87.533595 C 49.503653,105.50510 55.299813,119.52520 61.417223,119.13850 C 67.837383,118.73260 72.029223,102.77780 70.811743,83.517195 C 70.790483,83.180995 70.709893,82.906895 70.685643,82.573095 C 84.748903,94.550395 99.159203,100.59990 103.28003,95.922995 C 107.22733,91.442995 100.09968,78.821095 87.514113,66.829695 C 103.39042,64.749495 115.36896,59.495195 115.01317,53.865895 C 114.65737,48.236595 102.11519,44.576595 86.103333,44.511995 C 97.082733,31.028995 102.56108,17.612995 98.080203,13.665095 z "
         style="fill:#ffd400;fill-opacity:1.0000000;fill-rule:evenodd;stroke:none;stroke-width:2.2500000;stroke-linecap:butt;stroke-linejoin:miter;stroke-miterlimit:4.0000000;stroke-opacity:1.0000000;" />
      <path
         transform="matrix(0.750308,0.661089,-0.661089,0.750308,2051.071,-1994.659)"
         d="M -117.26799 2856.2305 A 20.394436 20.394436 0 1 0 -158.05687,2856.2305 A 20.394436 20.394436 0 1 0 -117.26799 2856.2305 z"
         sodipodi:ry="20.394436"
         sodipodi:rx="20.394436"
         sodipodi:cy="2856.2305"
         sodipodi:cx="-137.66243"
         id="path3674"
         style="fill:#d3e900;fill-opacity:1.0000000;fill-rule:evenodd;stroke:#000000;stroke-width:1.8750000;stroke-linecap:butt;stroke-linejoin:miter;stroke-miterlimit:4.0000000;stroke-opacity:0.40331492;"
         sodipodi:type="arc" />
      <path
         id="path3675"
         d="M 159.88467,100.19140 C 155.19351,96.057995 141.57824,103.90480 129.10408,117.63590 C 127.43864,99.920895 121.74844,86.151195 115.69100,86.534095 C 110.03298,86.891795 106.31135,99.559295 106.28639,115.69070 C 93.576783,105.91720 81.358933,101.15530 77.626753,105.39110 C 73.708743,109.83790 80.724343,122.30200 93.131943,134.21300 C 75.303183,135.84880 61.427723,141.60010 61.812273,147.68420 C 62.197163,153.77280 76.687853,157.71070 94.599553,157.08070 C 83.786613,170.46180 78.399573,183.70700 82.847213,187.62560 C 87.051153,191.32980 98.416773,185.19070 109.71038,174.05990 C 111.30812,192.03140 117.10428,206.05150 123.22169,205.66480 C 129.64185,205.25890 133.83369,189.30410 132.61621,170.04350 C 132.59495,169.70730 132.51436,169.43320 132.49011,169.09940 C 146.55337,181.07670 160.96367,187.12620 165.08450,182.44930 C 169.03180,177.96930 161.90415,165.34740 149.31858,153.35600 C 165.19489,151.27580 177.17343,146.02150 176.81764,140.39220 C 176.46184,134.76290 163.91966,131.10290 147.90780,131.03830 C 158.88720,117.55530 164.36555,104.13930 159.88467,100.19140 z "
         style="fill:#ffd400;fill-opacity:1.0000000;fill-rule:evenodd;stroke:none;stroke-width:2.2500000;stroke-linecap:butt;stroke-linejoin:miter;stroke-miterlimit:4.0000000;stroke-opacity:1.0000000;" />
      <path
         transform="matrix(0.750308,0.661089,-0.661089,0.750308,2112.875,-1908.133)"
         d="M -117.26799 2856.2305 A 20.394436 20.394436 0 1 0 -158.05687,2856.2305 A 20.394436 20.394436 0 1 0 -117.26799 2856.2305 z"
         sodipodi:ry="20.394436"
         sodipodi:rx="20.394436"
         sodipodi:cy="2856.2305"
         sodipodi:cx="-137.66243"
         id="path3676"
         style="fill:#d3e900;fill-opacity:1.0000000;fill-rule:evenodd;stroke:#000000;stroke-width:1.8750000;stroke-linecap:butt;stroke-linejoin:miter;stroke-miterlimit:4.0000000;stroke-opacity:0.40331492;"
         sodipodi:type="arc" />
    </pattern>
    <pattern
       patternTransform="matrix(4.136665e-2,4.286235e-2,-4.286235e-2,4.136665e-2,10.33947,2863.228)"
       id="pattern3706"
       xlink:href="#pattern3695"
       inkscape:collect="always" />
    <pattern
       patternTransform="matrix(4.788509e-2,4.961648e-2,-4.961648e-2,4.788509e-2,10.78534,2860.273)"
       id="pattern3713"
       xlink:href="#pattern3706"
       inkscape:collect="always" />
    <pattern
       patternTransform="matrix(4.788509e-2,4.961648e-2,-4.961648e-2,4.788509e-2,176.9535,2860.273)"
       id="pattern1878"
       xlink:href="#pattern3713"
       inkscape:collect="always" />
    <pattern
       patternTransform="matrix(-1.224270e-3,6.894402e-2,-6.894402e-2,-1.224270e-3,143.8084,2787.764)"
       id="pattern1884"
       xlink:href="#pattern1878"
       inkscape:collect="always" />
    <pattern
       patternTransform="matrix(-1.437973e-3,8.097856e-2,-8.097856e-2,-1.437973e-3,161.8816,2787.555)"
       id="pattern1889"
       xlink:href="#pattern1884"
       inkscape:collect="always" />
    <linearGradient
       y2="7705.3169"
       x2="57.759571"
       y1="7363.2861"
       x1="59.411896"
       gradientTransform="matrix(2.6199799,0,0,0.3672919,-7.042072,-2738.6004)"
       gradientUnits="userSpaceOnUse"
       id="linearGradient2533"
       xlink:href="#linearGradient1806"
       inkscape:collect="always" />
    <linearGradient
       y2="4922.9502"
       x2="76.654678"
       y1="4976.312"
       x1="56.535282"
       gradientTransform="matrix(1.7061174,0,0,0.56402789,-7.042072,-2738.6004)"
       gradientUnits="userSpaceOnUse"
       id="linearGradient2536"
       xlink:href="#linearGradient1514"
       inkscape:collect="always" />
    <linearGradient
       y2="7122.1138"
       x2="61.151962"
       y1="7033.7109"
       x1="61.151962"
       gradientTransform="matrix(2.4626857,0,0,0.39075076,-7.042072,-2738.6004)"
       gradientUnits="userSpaceOnUse"
       id="linearGradient2543"
       xlink:href="#linearGradient2370"
       inkscape:collect="always" />
    <linearGradient
       y2="4937.6909"
       x2="62.070538"
       y1="5033.0957"
       x1="60.735538"
       gradientTransform="matrix(1.7101658,0,0,0.56269279,-7.042072,-2738.6004)"
       gradientUnits="userSpaceOnUse"
       id="linearGradient2546"
       xlink:href="#linearGradient2606"
       inkscape:collect="always" />
    <linearGradient
       y2="6566.1846"
       x2="67.972542"
       y1="6776.8955"
       x1="67.972542"
       gradientTransform="matrix(2.2970993,0,0,0.41891826,-7.042072,-2738.6004)"
       gradientUnits="userSpaceOnUse"
       id="linearGradient2549"
       xlink:href="#linearGradient2362"
       inkscape:collect="always" />
  </defs>
  <sodipodi:namedview
     inkscape:window-maximized="1"
     inkscape:window-y="0"
     inkscape:window-x="1920"
     inkscape:window-height="1163"
     inkscape:window-width="1920"
     inkscape:guide-bbox="true"
     showguides="true"
     units="px"
     showgrid="false"
     inkscape:document-rotation="0"
     inkscape:current-layer="layer1"
     inkscape:document-units="px"
     inkscape:cy="50"
     inkscape:cx="160"
     inkscape:zoom="1.4"
     inkscape:pageshadow="2"
     inkscape:pageopacity="0.0"
     borderopacity="1.0"
     bordercolor="#666666"
     pagecolor="#ffffff"
     id="base"
     inkscape:lockguides="true" />
  <metadata
     id="metadata4">
    <rdf:RDF>
      <cc:Work
         rdf:about="">
        <dc:format>image/svg+xml</dc:format>
        <dc:type
           rdf:resource="http://purl.org/dc/dcmitype/StillImage" />
        <dc:title />
      </cc:Work>
    </rdf:RDF>
  </metadata>
  <g
     id="layer1"
     inkscape:groupmode="layer"
     inkscape:label="Layer 1">
    <rect
       y="44.671986"
       x="0.36641598"
       height="54.64373"
       width="299.63358"
       id="rect2359"
       style="fill:url(#linearGradient2549);fill-opacity:1;fill-rule:evenodd;stroke:none;stroke-width:0.488834" />
    <path
       sodipodi:nodetypes="cccc"
       id="path2373"
       d="m 164.74715,47.668838 -3.3331,51.832461 H 7.215151 Z"
       style="fill:url(#linearGradient2546);fill-opacity:1;fill-rule:evenodd;stroke:none;stroke-width:0.980968pt;stroke-linecap:butt;stroke-linejoin:miter;stroke-opacity:1"
       inkscape:connector-curvature="0" />
    <rect
       y="0.11508077"
       x="0.38901424"
       height="47.497341"
       width="299.34912"
       id="rect1734"
       style="fill:url(#linearGradient2543);fill-opacity:1;fill-rule:evenodd;stroke:none;stroke-width:0.338471" />
    <rect
       id="rect2396"
       y="47.34977"
       x="0.67792702"
       height="51.924881"
       width="299.05017"
       style="fill:url(#pattern2540);stroke:none;stroke-width:0.980968" />
    <path
       sodipodi:nodetypes="cc"
       id="path2382"
       d="M 94.52993,98.519547 163.90098,48.65059"
       style="fill:none;fill-opacity:0.75;fill-rule:evenodd;stroke:#b0af00;stroke-width:1.22621;stroke-linecap:butt;stroke-linejoin:miter;stroke-miterlimit:4;stroke-dasharray:4.90484, 2.45242;stroke-dashoffset:0;stroke-opacity:1"
       inkscape:connector-curvature="0" />
    <path
       sodipodi:nodetypes="cccc"
       id="path2384"
       d="m 164.74715,47.668838 -3.3331,51.832461 H 7.215151 Z"
       style="fill:none;fill-opacity:1;fill-rule:evenodd;stroke:url(#linearGradient2536);stroke-width:0.367863;stroke-linecap:butt;stroke-linejoin:miter;stroke-miterlimit:4;stroke-opacity:1"
       inkscape:connector-curvature="0" />
    <path
       id="path2387"
       d="M 58.069649,5.6562541 29.253727,26.593829 18.800292,16.10964 0.376495,30.854858 0.34584,47.531306 h 124.03108 4.3837 170.28984 L 299.0198,9.672139 283.8148,23.405685 262.17221,20.953266 243.93234,9.1816553 228.4821,27.728024 203.77398,14.76081 180.93583,33.276572 159.937,27.728024 126.92131,46.121165 94.70266,21.351735 84.24922,31.835825 Z"
       style="fill:url(#linearGradient2533);fill-opacity:1;fill-rule:evenodd;stroke:none;stroke-width:0.980968pt;stroke-linecap:butt;stroke-linejoin:miter;stroke-opacity:1"
       inkscape:connector-curvature="0" />
    <path
       sodipodi:nodetypes="cccc"
       id="rect2398"
       d="m 5.43993,98.992962 153.86739,-0.834706 3.08587,-50.459597 z"
       style="fill:url(#pattern2530);stroke:none;stroke-width:0.980968"
       inkscape:connector-curvature="0" />
    <path
       sodipodi:nodetypes="ccccccccccccccccccccccccccc"
       id="path3707"
       d="m 66.616054,76.736574 65.465506,-19.069519 -4.88112,-3.16107 -9.7601,2.555127 -12.61814,6.250234 -4.04402,-6.856276 -8.33108,5.413077 -6.902063,-7.448094 -8.33108,5.412978 -9.7601,-3.161069 -11.189121,6.842052 -8.331079,-4.590045 -4.044021,-7.448094 -11.18912,5.413077 -4.04402,-6.019119 L 17.467375,53.424861 7.707276,55.979889 0.805214,52.818819 0,69.311532 12.004194,66.100629 18.292309,71.463775 20.293364,83.971994 39.442657,66.470846 40.014692,80.408139 49.160846,78.626211 58.307,72.55726 Z"
       style="fill:url(#pattern2527);stroke:none;stroke-width:0.980968"
       inkscape:connector-curvature="0" />
    <path
       sodipodi:nodetypes="ccccccccccccccccccc"
       id="rect3704"
       d="m 0.324905,66.163706 v 34.325134 l 16.066762,-3.607705 20.733118,-10.041478 16.05433,-3.023539 6.696756,-7.702066 6.696757,-0.684029 13.714936,-3.02344 6.696757,-0.684029 16.054329,-5.362851 16.05433,-3.023342 -28.0051,7.079152 L 87.445729,59.180884 51.453443,58.840587 57.854053,72.536659 42.231116,65.980755 31.570781,59.424949 14.597757,58.098975 Z"
       style="fill:url(#pattern2524);stroke:none;stroke-width:0.980968"
       inkscape:connector-curvature="0" />
    <path
       sodipodi:nodetypes="ccccccccccccccccccccccccccccccccccccc"
       id="path3711"
       d="m 141.72716,53.437417 -11.34325,-1.4741 -9.16383,2.047574 -28.67973,9.049131 -14.634726,1.557286 -5.367123,-10.813499 -17.492758,2.639587 -9.755742,-0.463801 -21.187898,-3.321654 -23.60448,-1.445456 0.437589,-4.04345 16.605106,-1.012163 5.489937,1.008926 4.479469,-0.0016 6.500408,1.008827 4.479469,-1.012064 6.500407,-2.022559 5.489938,1.008925 5.489939,2.019224 6.500408,-1.011966 4.479469,-1.012065 5.489937,1.008925 6.500409,1.008729 4.984702,-1.011966 4.984704,-1.012064 5.489936,-0.0017 5.52166,0.997644 6.53213,-0.01275 5.01642,-0.518049 6.02689,1.50294 5.01643,-1.528445 4.00596,0.492347 8.01191,-0.0256 7.50667,0.98499 11.54856,-1.036098 8.51714,0.984891 z"
       style="fill:url(#pattern2521);stroke:none;stroke-width:0.980968"
       inkscape:connector-curvature="0" />
    <path
       sodipodi:nodetypes="cccccccccccccccccccc"
       id="path3709"
       d="m 0.497623,54.447912 16.90084,-0.463605 11.18476,8.110345 22.616919,0.96537 12.61378,-0.463605 15.471819,-4.750728 15.471819,6.681468 9.75574,-0.463801 13.10414,-3.321654 27.64636,-8.518722 -2.95956,-4.067484 -31.25271,6.037168 -16.09566,-1.036 -22.158486,-0.0256 L 57.423646,48.318533 41.039438,49.568776 29.490888,53.079953 13.395223,46.99148 1.341436,47.976371 Z"
       style="fill:url(#pattern2518);stroke:none;stroke-width:0.980968"
       inkscape:connector-curvature="0" />
    <rect
       y="0.24416806"
       x="0.38901424"
       height="99.071609"
       width="299.34912"
       id="rect2179"
       style="fill:none;fill-opacity:1;fill-rule:evenodd;stroke:#000000;stroke-width:0.488834" />
    <path
       sodipodi:nodetypes="ccccccccccccc"
       id="path1875"
       d="m 163.33046,66.163706 -2.43292,31.892235 35.53012,1.258091 103.45235,-0.309789 -2.20785,-32.64454 -15.57362,-3.023342 -31.64726,-4.155477 -35.99228,-0.340297 -13.06273,13.696072 1.40749,-18.72049 -27.69077,-1.690011 -9.67428,3.53992 z"
       style="fill:url(#pattern2514);stroke:none;stroke-width:0.980968"
       inkscape:connector-curvature="0" />
    <path
       sodipodi:nodetypes="cccccccccccccccccccc"
       id="path1877"
       d="m 163.50318,54.447912 16.90084,-0.463605 11.18476,8.110345 12.88524,0.96537 12.61378,-0.463605 25.2035,-4.750728 5.74014,6.681468 19.48742,-0.463801 13.10414,-3.321654 17.91469,-8.518722 -2.95956,-4.067484 -21.52104,6.037168 -16.09566,-1.036 -22.15849,-0.0256 -15.37374,-4.812528 -16.3842,1.250243 -11.54855,3.511177 -16.09567,-6.088473 -12.05378,0.984891 z"
       style="fill:url(#pattern2511);stroke:none;stroke-width:0.980968"
       inkscape:connector-curvature="0" />
    <path
       sodipodi:nodetypes="cccccccc"
       id="path1885"
       d="m 218.78602,61.584941 6.08417,6.262301 43.67058,10.582678 30.89162,11.040005 -1.51098,-22.671141 1.24141,-11.938964 -60.84553,5.716687 z"
       style="fill:url(#pattern2508);stroke:none;stroke-width:0.980968"
       inkscape:connector-curvature="0" />
    <path
       sodipodi:nodetypes="ccccccccccccccccccccccccccccccccc"
       id="path1876"
       d="m 293.38947,51.963317 -9.16383,2.047574 -28.67973,9.049131 -14.63473,1.557286 -5.36712,-13.246397 -17.49276,5.072485 -9.75574,-0.463801 -21.1879,-3.321654 -23.60448,-1.445456 0.43759,-4.04345 16.60511,-1.012163 5.48994,1.008926 4.47947,-0.0016 6.5004,1.008827 4.47947,-1.012064 6.50041,-2.022559 5.48993,1.008925 5.48994,2.019224 6.50041,-1.011966 4.47947,-1.012065 5.48994,1.008925 6.50041,1.008729 4.9847,-1.011966 4.9847,-1.012064 5.48994,-0.0017 5.52166,0.997644 6.53214,-0.01275 5.01641,-0.518049 6.0269,1.50294 5.01642,-1.528445 4.00596,0.492347 8.01191,-0.0256 z"
       style="fill:url(#pattern2505);stroke:none;stroke-width:0.980968"
       inkscape:connector-curvature="0" />
    <path
       sodipodi:nodetypes="cccccccc"
       id="path1883"
       d="m 163.51417,61.226104 -0.45151,21.006537 20.51427,-1.322933 22.75356,-0.985578 7.32244,-3.420144 -0.8806,-23.257857 -38.85264,-0.559937 z"
       style="fill:url(#pattern2502);stroke:none;stroke-width:0.980968"
       inkscape:connector-curvature="0" />
    <path
       sodipodi:nodetypes="ccccc"
       id="path3143"
       d="m 187.34449,58.550722 0.004,9.828445 47.00035,27.155833 1.06415,-19.936592 z"
       style="fill:#845206;fill-opacity:1;fill-rule:evenodd;stroke:#000000;stroke-width:1.03566pt;stroke-linecap:butt;stroke-linejoin:round;stroke-opacity:1"
       inkscape:connector-curvature="0" />
    <path
       sodipodi:nodetypes="ccccc"
       id="path3144"
       d="M 234.34891,95.535 235.41707,75.239785 277.93235,63.49 v 19.227017 z"
       style="fill:#734805;fill-opacity:1;fill-rule:evenodd;stroke:#000000;stroke-width:1.03566pt;stroke-linecap:butt;stroke-linejoin:round;stroke-opacity:1"
       inkscape:connector-curvature="0" />
    <path
       sodipodi:nodetypes="ccccc"
       id="path3141"
       d="m 185.17912,57.732677 17.18957,-12.014385 55.1252,5.308267 -24.2092,25.281344 z"
       style="fill:#950f06;fill-opacity:1;fill-rule:evenodd;stroke:#000000;stroke-width:1.03566pt;stroke-linecap:round;stroke-linejoin:round;stroke-opacity:1"
       inkscape:connector-curvature="0" />
    <path
       sodipodi:nodetypes="ccccc"
       id="path3517"
       d="m 244.10442,92.721918 0.63086,-14.399226 25.10953,-6.939378 v 13.768329 z"
       style="fill:#8a5606;fill-opacity:1;fill-rule:evenodd;stroke:#000000;stroke-width:0.611659pt;stroke-linecap:butt;stroke-linejoin:round;stroke-opacity:1"
       inkscape:connector-curvature="0" />
    <path
       sodipodi:nodetypes="cccc"
       id="path3142"
       d="M 257.8486,51.026642 280.27617,63.49 233.63944,76.307984 Z"
       style="fill:#7f3e06;fill-opacity:1;fill-rule:evenodd;stroke:#000000;stroke-width:1.03566pt;stroke-linecap:round;stroke-linejoin:round;stroke-opacity:1"
       inkscape:connector-curvature="0" />
    <g
       transform="matrix(0.98096754,0,0,0.98096754,-7.042072,-2809.134)"
       id="g2600">
      <path
         sodipodi:nodetypes="ccccc"
         id="rect3172"
         d="m 196.35511,2926.6549 v 11.0037 l 47.76713,27.6033 2.6777,-20.6124 z"
         style="fill:url(#pattern2597);stroke:none"
         inkscape:connector-curvature="0" />
      <path
         sodipodi:nodetypes="ccccc"
         id="path3175"
         d="m 246.72435,2963.6034 -1.22984,-17.8585 44.24562,-12.4757 v 17.3061 z"
         style="fill:url(#pattern2596);stroke:none"
         inkscape:connector-curvature="0" />
      <path
         sodipodi:nodetypes="ccccc"
         id="path3177"
         d="m 196.31214,2925.2258 17.82243,-11.5487 53.30323,6.3982 -20.99948,22.8722 z"
         style="fill:url(#pattern2599);stroke:none"
         inkscape:connector-curvature="0" />
      <path
         sodipodi:nodetypes="cccc"
         id="path3179"
         d="m 247.23359,2943.6153 22.67855,-24.9152 21.71855,12.574 z"
         style="fill:url(#pattern2598);stroke:none"
         inkscape:connector-curvature="0" />
    </g>
    <path
       sodipodi:nodetypes="ccccccccccccccccccccccccccccccc"
       id="path1888"
       d="m 183.95721,67.521953 -6.5922,24.301705 15.12685,4.324694 11.68618,-0.836373 10.826,3.464483 15.98701,0.02384 27.58548,-2.01785 21.47778,-9.300455 -5.33613,-3.924851 -2.66807,-1.532369 -3.52824,0.187953 -4.38839,3.198543 -1.80791,1.47822 -4.47597,2.096327 -7.91664,2.09623 -7.05646,-1.344416 -8.77681,5.536973 -1.89547,-4.785062 -3.50207,0.0073 -4.36224,-1.713162 -0.0614,-4.293597 -2.6419,-4.293597 -7.12694,3.469584 -4.54645,-2.551594 -1.10577,-7.712563 -3.49164,-1.917301 -3.49165,0.663232 -2.68244,3.046591 -3.64455,-4.228657 L 189.3221,69.674 Z"
       style="fill:url(#pattern2489);stroke:none;stroke-width:0.980968"
       inkscape:connector-curvature="0" />
  </g>
</svg>
