<?xml version="1.0" encoding="UTF-8" standalone="no"?>
<svg
   xmlns:dc="http://purl.org/dc/elements/1.1/"
   xmlns:cc="http://creativecommons.org/ns#"
   xmlns:rdf="http://www.w3.org/1999/02/22-rdf-syntax-ns#"
   xmlns:svg="http://www.w3.org/2000/svg"
   xmlns="http://www.w3.org/2000/svg"
   xmlns:sodipodi="http://sodipodi.sourceforge.net/DTD/sodipodi-0.dtd"
   xmlns:inkscape="http://www.inkscape.org/namespaces/inkscape"
   width="300"
   height="65"
   id="svg2901"
   viewBox="0 0 300 65"
   sodipodi:version="0.32"
   inkscape:version="1.0beta1 (459877fba3, 2019-11-14)"
   sodipodi:docname="basic-f02.svg"
   version="1.1">
  <defs
     id="defs3" />
  <sodipodi:namedview
     inkscape:window-maximized="0"
     inkscape:window-y="27"
     inkscape:window-x="54"
     inkscape:window-height="1053"
     inkscape:window-width="1866"
     inkscape:guide-bbox="true"
     showguides="true"
     units="px"
     showgrid="false"
     inkscape:document-rotation="0"
     inkscape:current-layer="layer1"
     inkscape:document-units="px"
     inkscape:cy="93.519247"
     inkscape:cx="556.47186"
     inkscape:zoom="1.4"
     inkscape:pageshadow="2"
     inkscape:pageopacity="0.0"
     borderopacity="1.0"
     bordercolor="#666666"
     pagecolor="#ffffff"
     id="base"
     inkscape:lockguides="true" />
  <metadata
     id="metadata4">
    <rdf:RDF>
      <cc:Work
         rdf:about="">
        <dc:format>image/svg+xml</dc:format>
        <dc:type
           rdf:resource="http://purl.org/dc/dcmitype/StillImage" />
        <dc:title />
      </cc:Work>
    </rdf:RDF>
  </metadata>
  <g
     inkscape:label="Layer 1"
     inkscape:groupmode="layer"
     id="layer1">
    <ellipse
       style="font-size:12px;fill:#ff0000;fill-opacity:0.75;fill-rule:evenodd;stroke:#000000;stroke-width:1pt"
       id="path750"
       cx="26.424618"
       cy="13.847253"
       rx="9.7025042"
       ry="3.8221989" />
    <ellipse
       style="font-size:12px;fill:#ff0000;fill-opacity:0.75;fill-rule:evenodd;stroke:#000000;stroke-width:1pt"
       id="path751"
       cx="34.363033"
       cy="35.604393"
       rx="5.2922754"
       ry="14.40675" />
    <ellipse
       style="font-size:12px;fill:#ff0000;fill-opacity:0.75;fill-rule:evenodd;stroke:#000000;stroke-width:1pt"
       id="path752"
       cx="49.651825"
       cy="17.375452"
       rx="9.99652"
       ry="9.1144743" />
    <ellipse
       style="font-size:12px;fill:#ff0000;fill-opacity:0.75;fill-rule:evenodd;stroke:#000000;stroke-width:1pt"
       id="path753"
       cx="62.588497"
       cy="48.541039"
       rx="15.288795"
       ry="6.1743212" />
    <ellipse
       style="font-size:12px;fill:#ff0000;fill-opacity:0.75;fill-rule:evenodd;stroke:#000000;stroke-width:1pt"
       id="path754"
       cx="65.528656"
       cy="25.019861"
       rx="16.464857"
       ry="15.58281" />
    <ellipse
       style="font-size:12px;fill:#ff0000;fill-opacity:0.75;fill-rule:evenodd;stroke:#000000;stroke-width:1pt"
       id="path755"
       cx="89.049873"
       cy="26.783899"
       rx="9.99652"
       ry="4.4102292" />
    <path
       sodipodi:type="spiral"
       style="font-size:12px;fill:none;fill-opacity:0.75;fill-rule:evenodd;stroke:#000000;stroke-width:1pt"
       id="path762"
       sodipodi:cx="187.25098"
       sodipodi:cy="37.074486"
       sodipodi:expansion="1"
       sodipodi:revolution="3"
       sodipodi:radius="15.535585"
       sodipodi:argument="-18.335104"
       sodipodi:t0="0"
       d="m 187.25098,37.074486 c 0.6781,0.383278 -0.1821,1.10317 -0.63704,1.127058 -1.23285,0.06473 -1.83268,-1.370803 -1.61708,-2.401126 0.38567,-1.843006 2.49716,-2.632888 4.16522,-2.107107 2.44794,0.771605 3.45121,3.636774 2.59713,5.92931 -1.13836,3.055591 -4.78083,4.276931 -7.6934,3.087156 -3.66518,-1.49721 -5.1064,-5.926941 -3.57718,-9.457494 1.85209,-4.275973 7.07419,-5.93803 11.22158,-4.067205 4.88756,2.204703 6.77102,8.222159 4.55723,12.985678 -2.5559,5.499672 -9.3706,7.604904 -14.74977,5.047254 -6.11216,-2.906165 -8.43942,-10.51937 -5.53728,-16.513862 3.25578,-6.724915 11.66839,-9.274407 18.27796,-6.027303 7.33787,3.604902 10.10973,12.817587 6.51733,20.042047" />
    <path
       sodipodi:type="spiral"
       style="font-size:12px;fill:none;fill-opacity:0.75;fill-rule:evenodd;stroke:#000000;stroke-width:1pt"
       id="path763"
       sodipodi:cx="214.30038"
       sodipodi:cy="25.313868"
       sodipodi:expansion="1"
       sodipodi:revolution="3"
       sodipodi:radius="16.818087"
       sodipodi:argument="-21.354641"
       sodipodi:t0="0"
       d="m 214.30038,25.313868 c -0.6781,-0.50121 0.34107,-1.161355 0.83305,-1.12706 1.33322,0.09294 1.78854,1.714482 1.42107,2.793145 -0.65731,1.929475 -3.03022,2.4999 -4.75324,1.715092 -2.52862,-1.151736 -3.22899,-4.362592 -2.00911,-6.713348 1.6259,-3.133188 5.70071,-3.965425 8.67345,-2.303125 3.74088,2.091834 4.70562,7.041534 2.59714,10.633552 -2.55366,4.350414 -8.38387,5.448 -12.59365,2.891158 -4.96109,-3.01315 -6.19174,-9.727146 -3.18518,-14.553756 3.47119,-5.572512 11.07105,-6.936379 16.51386,-3.479191 6.18446,3.928277 7.68166,12.415399 3.77321,18.473959 -4.3847,6.79679 -13.76007,8.427401 -20.43407,4.067224 -7.40939,-4.840622 -9.17348,-15.104982 -4.36124,-22.394163" />
    <path
       sodipodi:type="spiral"
       style="font-size:12px;fill:none;fill-opacity:0.75;fill-rule:evenodd;stroke:#000000;stroke-width:1pt"
       id="path764"
       sodipodi:cx="253.69844"
       sodipodi:cy="31.254644"
       sodipodi:expansion="1"
       sodipodi:revolution="3"
       sodipodi:radius="35.095131"
       sodipodi:argument="-15.859339"
       sodipodi:t0="0"
       d="m 253.69844,31.254644 c -1.73949,0.265347 -1.21589,-2.213888 -0.44102,-2.89115 2.09983,-1.835339 5.16861,-0.122127 6.22332,2.009104 1.88662,3.812272 -0.76223,8.16191 -4.45923,9.555497 -5.42549,2.045145 -11.20591,-1.644857 -12.88767,-6.909358 -2.24152,-7.016753 2.52506,-14.269233 9.35949,-16.219844 8.60042,-2.454645 17.34208,3.403676 19.55201,11.809613 2.67652,10.180716 -4.2813,20.42038 -14.25974,22.884191 -11.75924,2.903516 -23.50207,-5.158306 -26.21636,-16.709868 -3.13376,-13.336735 6.03489,-26.5860245 19.15999,-29.5485374 14.91358,-3.3661955 29.67157,6.9111814 32.88071,21.6101224 3.60017,16.48999 -7.78726,32.758274 -24.06025,36.212884 -18.06609,3.835272 -35.84584,-8.663196 -39.54505,-26.510377" />
    <path
       sodipodi:type="spiral"
       style="font-size:12px;fill:none;fill-opacity:0.75;fill-rule:evenodd;stroke:#000000;stroke-width:1pt"
       id="path776"
       sodipodi:cx="225.47298"
       sodipodi:cy="16.463167"
       sodipodi:expansion="1"
       sodipodi:revolution="3"
       sodipodi:radius="13.422048"
       sodipodi:argument="-18.346712"
       sodipodi:t0="0"
       d="m 225.47298,16.463167 c 0.58965,0.324313 -0.14625,0.954852 -0.53903,0.980051 -1.06441,0.06829 -1.597,-1.165853 -1.42107,-2.058108 0.31469,-1.596035 2.13088,-2.299587 3.57718,-1.862095 2.12251,0.642037 3.01797,3.107186 2.30312,5.096267 -0.95278,2.651131 -4.08725,3.742772 -6.61535,2.744138 -3.18134,-1.256678 -4.47084,-5.069055 -3.18516,-8.134425 1.55714,-3.7125726 6.05183,-5.2007898 9.65351,-3.6261823 4.24445,1.8556203 5.93191,7.0351933 4.0672,11.1725833 -2.15288,4.776781 -8.01896,6.663827 -12.69166,4.508227 -5.30942,-2.44933 -7.39629,-9.003014 -4.94925,-14.210742 2.74521,-5.8422837 9.98727,-8.1291489 15.72982,-5.3902709 6.37532,3.0406737 8.86231,10.9716849 5.83129,17.2489009" />
    <path
       d="M 125.71394,42.362183 111.3098,38.363007 99.849453,47.961601 99.201772,33.026636 86.531523,25.093323 l 14.003847,-5.23114 3.62971,-14.501651 9.30254,11.701942 14.91353,-1.0292 -8.25457,12.463338 z"
       inkscape:randomized="0"
       inkscape:rounded="0"
       inkscape:flatsided="false"
       sodipodi:arg2="1.3575959"
       sodipodi:arg1="0.72927738"
       sodipodi:r2="11.255667"
       sodipodi:r1="22.511335"
       sodipodi:cy="27.362183"
       sodipodi:cx="108.92823"
       sodipodi:sides="5"
       id="path1306"
       style="color:#000000;font-family:'Liberation Sans',Arial,sans-serif;display:inline;overflow:visible;visibility:visible;opacity:1;fill:#ffff00;fill-opacity:0.75;fill-rule:evenodd;stroke:#000000;stroke-width:1pt;stroke-linecap:butt;stroke-linejoin:miter;stroke-miterlimit:4;stroke-dasharray:none;stroke-dashoffset:0;stroke-opacity:1;marker:none;marker-start:none;marker-mid:none;marker-end:none"
       sodipodi:type="star" />
    <path
       d="m 131.42823,40.93361 -9.61206,-7.686594 -11.78125,3.560538 4.34009,-11.516901 -7.02688,-10.104372 12.29439,0.568758 7.4384,-9.8053839 3.25826,11.8684119 11.62406,4.044312 -10.28067,6.766325 z"
       inkscape:randomized="0"
       inkscape:rounded="0"
       inkscape:flatsided="false"
       sodipodi:arg2="1.7613236"
       sodipodi:arg1="1.133005"
       sodipodi:r2="9.2668076"
       sodipodi:r1="18.533615"
       sodipodi:cy="24.147896"
       sodipodi:cx="123.57109"
       sodipodi:sides="5"
       id="path1308"
       style="color:#000000;font-family:'Liberation Sans',Arial,sans-serif;display:inline;overflow:visible;visibility:visible;opacity:1;fill:#ffff00;fill-opacity:0.75;fill-rule:evenodd;stroke:#000000;stroke-width:1pt;stroke-linecap:butt;stroke-linejoin:miter;stroke-miterlimit:4;stroke-dasharray:none;stroke-dashoffset:0;stroke-opacity:1;marker:none;marker-start:none;marker-mid:none;marker-end:none"
       sodipodi:type="star" />
    <path
       d="m 149.28537,34.86218 -10.28037,-1.538268 -7.09528,7.596647 -1.71382,-10.252555 -9.41741,-4.400522 9.22116,-4.798159 1.27501,-10.316319 7.41281,7.28713 10.2054,-1.975314 -4.63978,9.301853 z"
       inkscape:randomized="0"
       inkscape:rounded="0"
       inkscape:flatsided="false"
       sodipodi:arg2="1.2353062"
       sodipodi:arg1="0.60698766"
       sodipodi:r2="7.8266454"
       sodipodi:r1="15.653291"
       sodipodi:cy="25.933609"
       sodipodi:cx="136.42823"
       sodipodi:sides="5"
       id="path1310"
       style="color:#000000;font-family:'Liberation Sans',Arial,sans-serif;display:inline;overflow:visible;visibility:visible;opacity:1;fill:#ffff00;fill-opacity:0.75;fill-rule:evenodd;stroke:#000000;stroke-width:1pt;stroke-linecap:butt;stroke-linejoin:miter;stroke-miterlimit:4;stroke-dasharray:none;stroke-dashoffset:0;stroke-opacity:1;marker:none;marker-start:none;marker-mid:none;marker-end:none"
       sodipodi:type="star" />
    <path
       d="m 166.78537,26.290753 -10.50955,1.748569 -4.5176,9.648806 -4.91062,-9.454838 -10.57257,-1.314842 7.47462,-7.591981 -2.01661,-10.4614237 9.53018,4.7627367 9.32624,-5.1506732 -1.58464,10.5355132 z"
       inkscape:randomized="0"
       inkscape:rounded="0"
       inkscape:flatsided="false"
       sodipodi:arg2="0.92190752"
       sodipodi:arg1="0.29358899"
       sodipodi:r2="8.0218134"
       sodipodi:r1="16.043627"
       sodipodi:cy="21.647896"
       sodipodi:cx="151.42822"
       sodipodi:sides="5"
       id="path1312"
       style="color:#000000;font-family:'Liberation Sans',Arial,sans-serif;display:inline;overflow:visible;visibility:visible;opacity:1;fill:#ffff00;fill-opacity:0.75;fill-rule:evenodd;stroke:#000000;stroke-width:1pt;stroke-linecap:butt;stroke-linejoin:miter;stroke-miterlimit:4;stroke-dasharray:none;stroke-dashoffset:0;stroke-opacity:1;marker:none;marker-start:none;marker-mid:none;marker-end:none"
       sodipodi:type="star" />
    <path
       d="m 184.64252,21.647894 -5.30313,-0.02752 -3.02909,4.352987 -1.61258,-5.052079 -5.07598,-1.535695 4.3065,-3.094833 -0.10804,-5.302099 4.27415,3.139366 5.00921,-1.741182 -1.66493,5.035069 z"
       inkscape:randomized="0"
       inkscape:rounded="0"
       inkscape:flatsided="false"
       sodipodi:arg2="1.0919661"
       sodipodi:arg1="0.46364761"
       sodipodi:r2="3.9929783"
       sodipodi:r1="7.9859571"
       sodipodi:cy="18.076466"
       sodipodi:cx="177.49966"
       sodipodi:sides="5"
       id="path1314"
       style="color:#000000;font-family:'Liberation Sans',Arial,sans-serif;display:inline;overflow:visible;visibility:visible;opacity:1;fill:#ffff00;fill-opacity:0.75;fill-rule:evenodd;stroke:#000000;stroke-width:1pt;stroke-linecap:butt;stroke-linejoin:miter;stroke-miterlimit:4;stroke-dasharray:none;stroke-dashoffset:0;stroke-opacity:1;marker:none;marker-start:none;marker-mid:none;marker-end:none"
       sodipodi:type="star" />
    <path
       d="m 202.14253,24.505041 -3.70669,-1.079891 -2.99096,2.441271 -0.11839,-3.858971 -3.24605,-2.090182 3.63351,-1.305084 0.9848,-3.733075 2.36403,3.052385 3.85468,-0.216986 -2.17246,3.191562 z"
       inkscape:randomized="0"
       inkscape:rounded="0"
       inkscape:flatsided="false"
       sodipodi:arg2="1.3702658"
       sodipodi:arg1="0.74194727"
       sodipodi:r2="2.9069321"
       sodipodi:r1="5.8138647"
       sodipodi:cy="20.576469"
       sodipodi:cx="197.85681"
       sodipodi:sides="5"
       id="path1316"
       style="color:#000000;font-family:'Liberation Sans',Arial,sans-serif;display:inline;overflow:visible;visibility:visible;opacity:1;fill:#ffff00;fill-opacity:0.75;fill-rule:evenodd;stroke:#000000;stroke-width:1pt;stroke-linecap:butt;stroke-linejoin:miter;stroke-miterlimit:4;stroke-dasharray:none;stroke-dashoffset:0;stroke-opacity:1;marker:none;marker-start:none;marker-mid:none;marker-end:none"
       sodipodi:type="star" />
  </g>
</svg>
