<?xml version="1.0" encoding="UTF-8" standalone="no"?>
<!-- Created with Inkscape (http://www.inkscape.org/) -->

<svg
   xmlns:dc="http://purl.org/dc/elements/1.1/"
   xmlns:cc="http://creativecommons.org/ns#"
   xmlns:rdf="http://www.w3.org/1999/02/22-rdf-syntax-ns#"
   xmlns:svg="http://www.w3.org/2000/svg"
   xmlns="http://www.w3.org/2000/svg"
   xmlns:xlink="http://www.w3.org/1999/xlink"
   xmlns:sodipodi="http://sodipodi.sourceforge.net/DTD/sodipodi-0.dtd"
   xmlns:inkscape="http://www.inkscape.org/namespaces/inkscape"
   sodipodi:docname="_tutorial-header.fr.svg"
   inkscape:version="0.48+devel r10003 custom"
   sodipodi:version="0.32"
   id="svg2708"
   height="1052.3622047"
   width="256.00000pt"
   version="1.1">
  <defs
     id="defs3">
    <linearGradient
       id="linearGradient841">
      <stop
         id="stop842"
         offset="0.00000000"
         style="stop-color:#0082ab;stop-opacity:1;" />
      <stop
         id="stop843"
         offset="1"
         style="stop-color:white;stop-opacity:0;" />
    </linearGradient>
    <linearGradient
       y2="0.91666669"
       x2="0.51618570"
       y1="0.16666391"
       x1="0.51618570"
       id="linearGradient1657"
       xlink:href="#linearGradient841" />
    <filter
       id="filter49"
       color-interpolation-filters="sRGB"
       height="1.2"
       width="1.2"
       y="-0.1"
       x="-0.1"
       inkscape:label="Drop shadow, custom">
      <feFlood
         id="feFlood51"
         flood-opacity="0.686275"
         flood-color="rgb(255,255,255)"
         result="flood" />
      <feComposite
         id="feComposite53"
         in2="SourceGraphic"
         in="flood"
         operator="in"
         result="composite1" />
      <feGaussianBlur
         id="feGaussianBlur55"
         in="composite1"
         stdDeviation="20"
         result="blur" />
      <feOffset
         id="feOffset57"
         dx="0"
         dy="0"
         result="offset" />
      <feComposite
         id="feComposite59"
         in2="offset"
         in="SourceGraphic"
         operator="over"
         result="composite2" />
    </filter>
  </defs>
  <sodipodi:namedview
     inkscape:window-y="25"
     inkscape:window-x="0"
     inkscape:window-height="947"
     inkscape:window-width="1235"
     inkscape:current-layer="layer1"
     inkscape:document-units="px"
     inkscape:cy="976.10968"
     inkscape:cx="192.93958"
     inkscape:zoom="2.8284271"
     inkscape:pageshadow="2"
     inkscape:pageopacity="0.0"
     borderopacity="1.0"
     bordercolor="#666666"
     pagecolor="#ffffff"
     id="base"
     showgrid="false"
     inkscape:window-maximized="0" />
  <metadata
     id="metadata4">
    <rdf:RDF>
      <cc:Work
         rdf:about="">
        <dc:format>image/svg+xml</dc:format>
        <dc:type
           rdf:resource="http://purl.org/dc/dcmitype/StillImage" />
      </cc:Work>
    </rdf:RDF>
  </metadata>
  <g
     id="layer1"
     inkscape:groupmode="layer"
     inkscape:label="Layer 1">
    <rect
       rx="0.0000000"
       ry="6.1828303"
       y="0.27752987"
       x="0.18214770"
       height="69.247704"
       width="319.89233"
       id="rect582"
       style="stroke-width:3.0611501;stroke:none;fill-rule:evenodd;fill-opacity:1.0000000;fill:url(#linearGradient1657);font-size:12.000000" />
    <path
       id="path93"
       d="M 150.96825,4.9606428 L 141.38875,4.9606428 L 141.38875,5.5735708 L 141.67566,5.5735708 C 142.96674,5.5735708 143.11020,5.6387828 143.11020,6.1864998 L 143.11020,6.5646939 L 143.11020,12.772216 L 143.11020,13.150409 C 143.11020,13.698134 142.96674,13.763338 141.67566,13.763338 L 141.38875,13.763338 L 141.38875,14.376267 L 151.17546,14.376267 L 151.49425,10.894312 L 150.79292,10.894312 C 150.58571,11.807180 150.21911,12.615728 149.83656,12.993914 C 149.34245,13.515559 148.43391,13.763338 147.09501,13.763338 L 146.04302,13.763338 C 145.56485,13.763338 145.16636,13.685090 145.02291,13.567719 C 144.91133,13.489472 144.89539,13.411232 144.89539,13.137365 L 144.89539,9.8119059 L 145.21418,9.8119059 C 146.18648,9.8119059 146.58495,9.8901539 146.90374,10.164012 C 147.31816,10.503082 147.47755,10.920392 147.50944,11.689817 L 148.25858,11.689817 L 148.25858,7.4123579 L 147.50944,7.4123579 C 147.42973,8.6903759 146.79216,9.1989769 145.27794,9.1989769 L 144.89539,9.1989769 L 144.89539,6.2256238 C 144.89539,5.6648628 145.03885,5.5735708 145.89956,5.5735708 L 146.72841,5.5735708 C 148.13106,5.5735708 148.81645,5.6909428 149.35839,6.0560928 C 149.88438,6.3951548 150.26692,7.1254559 150.50602,8.2991459 L 151.19140,8.2991459 L 150.96825,4.9606428 z M 129.81685,10.190100 L 131.61799,10.190100 C 133.05252,10.190100 133.80166,10.098809 134.43923,9.8510299 C 135.57093,9.4076319 136.20850,8.5730119 136.20850,7.5427659 C 136.20850,6.5516499 135.65062,5.7952698 134.59863,5.3649158 C 133.97699,5.1040938 132.98876,4.9606428 131.88895,4.9606428 L 126.31021,4.9606428 L 126.31021,5.5735708 L 126.59712,5.5735708 C 127.88820,5.5735708 128.03165,5.6387828 128.03165,6.1864998 L 128.03165,6.5646939 L 128.03165,12.772216 L 128.03165,13.150409 C 128.03165,13.698134 127.88820,13.763338 126.59712,13.763338 L 126.31021,13.763338 L 126.31021,14.376267 L 131.66581,14.376267 L 131.66581,13.763338 L 131.25138,13.763338 C 129.96030,13.763338 129.81685,13.698134 129.81685,13.150409 L 129.81685,12.772216 L 129.81685,10.190100 z M 129.81685,9.5771709 L 129.81685,6.2386678 C 129.81685,5.6387828 129.91248,5.5735708 130.78915,5.5735708 L 131.80926,5.5735708 C 133.46694,5.5735708 134.24796,6.2125878 134.24796,7.5949329 C 134.24796,8.9381549 133.43506,9.5771709 131.74550,9.5771709 L 129.81685,9.5771709 z M 115.94969,4.7780748 L 115.28024,4.7780748 L 111.61420,12.380985 C 111.29542,13.059118 111.23167,13.150409 110.99258,13.359064 C 110.73755,13.606843 110.29125,13.763338 109.86089,13.763338 L 109.79713,13.763338 L 109.79713,14.376267 L 114.02103,14.376267 L 114.02103,13.763338 L 113.70225,13.763338 C 112.84153,13.763338 112.41117,13.515559 112.41117,13.020002 C 112.41117,12.863507 112.45899,12.680932 112.55462,12.472277 L 113.08062,11.324666 L 117.30453,11.324666 L 118.16525,13.072162 C 118.26088,13.267780 118.29276,13.359064 118.29276,13.424268 C 118.29276,13.632923 117.89428,13.763338 117.30453,13.763338 L 116.63508,13.763338 L 116.63508,14.376267 L 121.57624,14.376267 L 121.57624,13.763338 L 121.35310,13.763338 C 120.55613,13.763338 120.38080,13.659010 120.01420,12.928710 L 115.94969,4.7780748 z M 115.16866,6.9168009 L 116.96980,10.620453 L 113.39940,10.620453 L 115.16866,6.9168009 z M 104.17057,4.8693588 L 103.56488,4.8693588 L 102.92731,5.6387828 C 101.79562,4.9606428 101.17399,4.7650308 100.10606,4.7650308 C 98.559938,4.7650308 97.284798,5.2736318 96.200928,6.3299508 C 95.180811,7.3210739 94.702641,8.4165169 94.702641,9.7597459 C 94.702641,12.563560 96.950078,14.571878 100.09012,14.571878 C 102.64040,14.571878 104.26621,13.346020 104.63281,11.155135 L 103.88367,11.050800 C 103.72427,11.741976 103.53300,12.211454 103.24610,12.602684 C 102.59258,13.502516 101.57247,13.958949 100.28139,13.958949 C 97.922368,13.958949 96.806618,12.615728 96.806618,9.8119059 C 96.806618,8.3382689 97.045708,7.3471539 97.587648,6.5646939 C 98.081758,5.8343938 99.069985,5.3779598 100.09012,5.3779598 C 101.20587,5.3779598 102.19410,5.8604738 102.79980,6.6951019 C 103.10264,7.1254559 103.34173,7.6340569 103.70834,8.6382159 L 104.40966,8.6382159 L 104.17057,4.8693588 z M 88.215354,4.8824028 L 87.625607,4.8824028 L 86.988037,5.6648628 C 86.238897,5.0780138 85.218777,4.7650308 84.087100,4.7650308 C 81.999060,4.7650308 80.596403,5.8604738 80.596403,7.4906049 C 80.596403,8.9120749 81.457120,9.6162949 83.800200,10.111852 L 85.314417,10.424835 C 86.493927,10.672614 86.605497,10.698694 86.940227,10.907349 C 87.418407,11.207295 87.673427,11.637649 87.673427,12.146250 C 87.673427,12.667888 87.434337,13.098242 86.956167,13.450355 C 86.430167,13.828542 85.904167,13.971993 85.027507,13.971993 C 83.848010,13.971993 83.003230,13.672047 82.254090,12.993914 C 81.584630,12.380985 81.249910,11.768056 81.010823,10.763905 L 80.325433,10.763905 L 80.389193,14.480595 L 81.010823,14.480595 L 81.728080,13.593806 C 82.796020,14.311056 83.688610,14.571878 85.075327,14.571878 C 87.418407,14.571878 88.916694,13.450355 88.916694,11.702853 C 88.916694,10.894312 88.581964,10.203136 87.960337,9.7075779 C 87.529977,9.3685089 86.908347,9.1468169 85.633197,8.8859939 L 83.927700,8.5338879 C 82.509110,8.2339419 81.839660,7.7253399 81.839660,6.9298439 C 81.839660,6.0169688 82.748200,5.3909968 84.103040,5.3909968 C 85.218777,5.3909968 86.127317,5.7822338 86.764897,6.5255699 C 87.227137,7.0602519 87.514037,7.6079769 87.721247,8.2730659 L 88.406634,8.2730659 L 88.215354,4.8824028 z M 66.665476,10.111852 L 66.665476,6.5646939 L 66.665476,6.1864998 C 66.665476,5.6387828 66.808935,5.5735708 68.100014,5.5735708 L 68.402861,5.5735708 L 68.402861,4.9606428 L 63.158832,4.9606428 L 63.158832,5.5735708 L 63.445744,5.5735708 C 64.736818,5.5735708 64.880276,5.6387828 64.880276,6.1864998 L 64.880276,6.5646939 L 64.880276,12.772216 L 64.880276,13.150409 C 64.880276,13.698134 64.736818,13.763338 63.445744,13.763338 L 63.158832,13.763338 L 63.158832,14.376267 L 68.402861,14.376267 L 68.402861,13.763338 L 68.100014,13.763338 C 66.808935,13.763338 66.665476,13.698134 66.665476,13.150409 L 66.665476,12.772216 L 66.665476,11.116011 L 68.514433,9.5902069 L 71.287871,12.915667 C 71.542896,13.228657 71.606653,13.332984 71.606653,13.463392 C 71.606653,13.672047 71.303811,13.763338 70.522783,13.763338 L 70.028662,13.763338 L 70.028662,14.376267 L 75.479896,14.376267 L 75.479896,13.763338 L 75.177056,13.763338 C 74.300396,13.763338 74.077246,13.672047 73.614998,13.111285 L 69.757696,8.5599679 L 72.132644,6.6168539 C 72.897731,5.9517648 73.870028,5.5735708 74.826396,5.5735708 L 74.826396,4.9606428 L 69.917090,4.9606428 L 69.917090,5.5735708 L 70.315574,5.5735708 C 71.048775,5.5735708 71.351627,5.6909428 71.351627,5.9648018 C 71.351627,6.1473768 71.032840,6.5255699 70.570599,6.9037569 L 66.665476,10.111852 z M 48.845329,4.9606428 L 45.561840,4.9606428 L 45.561840,5.5735708 L 45.960319,5.5735708 C 46.773222,5.5735708 47.139831,5.6778988 47.426732,6.0039248 L 47.426732,11.546365 C 47.426732,13.332984 47.107950,13.711171 45.577780,13.763338 L 45.577780,14.376267 L 50.120510,14.376267 L 50.120510,13.763338 C 48.606244,13.711171 48.287451,13.332984 48.287451,11.546365 L 48.287451,6.7081449 L 55.396408,14.558842 L 56.065863,14.558842 L 56.065863,7.7905439 C 56.065863,6.0039248 56.384651,5.6257388 57.914820,5.5735708 L 57.914820,4.9606428 L 53.372123,4.9606428 L 53.372123,5.5735708 C 54.886352,5.6257388 55.205134,6.0039248 55.205134,7.7905439 L 55.205134,11.885427 L 48.845329,4.9606428 z M 38.484798,6.5646939 L 38.484798,6.1864998 C 38.484798,5.6387828 38.628257,5.5735708 39.903394,5.5735708 L 40.222181,5.5735708 L 40.222181,4.9606428 L 34.946282,4.9606428 L 34.946282,5.5735708 L 35.265070,5.5735708 C 36.556146,5.5735708 36.699604,5.6387828 36.699604,6.1864998 L 36.699604,6.5646939 L 36.699604,12.772216 L 36.699604,13.150409 C 36.699604,13.698134 36.556146,13.763338 35.265070,13.763338 L 34.946282,13.763338 L 34.946282,14.376267 L 40.222181,14.376267 L 40.222181,13.763338 L 39.903394,13.763338 C 38.628257,13.763338 38.484798,13.698134 38.484798,13.150409 L 38.484798,12.772216 L 38.484798,6.5646939 z "
       style="stroke-width:1.0000000pt;fill-opacity:1.0000000;fill:#ffffff" />
    <use
       style="opacity:0.0786517"
       height="1052.3622"
       width="320"
       transform="matrix(2.39436,0,0,2.331219,-82.96365,-14.49494)"
       id="use1325"
       xlink:href="#path93"
       y="0"
       x="0" />
    <g
       id="g839"
       transform="matrix(0.058837,0,0,0.058837,-4.7689003,-3.296641)"
       style="filter:url(#filter49)">
      <path
         style="font-size:12px;fill:#ffffff;fill-rule:evenodd;stroke:#000000;stroke-width:0.93619299pt"
         d="M 397.64309,320.25301 280.39197,282.517 l -29.6497,-157.68253 94.33998,-95.687687 48.51771,17.520281 90.29683,88.949126 -86.2537,184.63682 z"
         id="path805" />
      <path
         style="font-size:12px;fill:#000000;fill-opacity:1;fill-rule:evenodd;stroke-width:1pt"
         d="m 476.95792,339.17168 c 18.82405,3.76439 22.5905,16.94193 18.82405,20.70634 -3.76341,3.76538 -13.17547,7.52979 -20.70534,1.88212 -7.53185,-5.64653 -7.53185,-18.82407 1.88129,-22.58846 z"
         id="path1791" />
      <path
         style="font-size:12px;fill:#000000;fill-opacity:1;fill-rule:evenodd;stroke-width:1pt"
         d="m 286.46194,340.42914 c -1.83424,0.48921 -17.15789,-12.71577 -29.29285,-6.59534 -12.13187,6.11956 -20.27633,19.82286 -8.94233,25.44602 11.33508,5.62316 19.43757,-0.86115 29.37437,-7.83863 9.9379,-6.97642 9.57933,-8.32059 8.86081,-11.01205 z"
         id="path1792" />
      <path
         style="font-size:12px;fill:#000000;fill-opacity:1;fill-rule:evenodd;stroke-width:1pt"
         d="m 510.35756,306.92856 c 10.23738,-2.55977 33.88577,0 30.11932,15.05778 -3.76334,15.06172 -35.76391,9.41193 -56.47317,1.88522 -1.8823,-15.06073 21.52866,-15.73733 26.35385,-16.943 z"
         id="path1793" />
      <path
         style="font-size:12px;fill:#000000;fill-opacity:1;fill-rule:evenodd;stroke-width:1pt"
         d="m 359.2403,21.362537 c -11.31337,0 -22.6056,4.320558 -31.27474,12.989693 L 173.87387,188.41466 c -8.4969,8.49674 -12.76227,19.54347 -12.93118,30.63111 l -0.0585,0 c 0,0.0395 0.0566,0.0774 0.0585,0.11702 -0.002,0.18609 -0.0585,0.36977 -0.0585,0.55586 l 0.2633,0 c 2.94912,11.22052 79.14951,25.52333 87.65118,34.02481 12.83905,12.83917 -49.23346,22.26805 -36.39456,35.10728 12.83906,12.83905 77.59023,24.84256 90.4305,37.6818 12.83908,12.83907 -26.2385,26.51035 -13.39928,39.34942 12.83907,12.83922 55.96669,-3.20939 48.15548,30.28002 17.33829,17.33828 53.51222,9.05882 77.73337,-8.27946 12.83906,-12.83907 -24.62937,-11.70675 -11.7902,-24.54584 12.83907,-12.83923 45.24731,-12.90848 72.55505,-43.62079 -10.99163,-17.09473 -46.98101,-24.37453 -34.14183,-37.21372 12.83906,-12.83906 37.79989,-6.31794 91.65925,-30.77738 26.29193,-11.94081 24.11992,-21.0102 24.01923,-32.00614 -0.002,-0.23138 0,-0.43973 0,-0.67288 l -0.0585,0 C 557.3983,207.95812 553.10345,196.9114 544.60673,188.41466 L 390.54428,34.35223 C 381.87515,25.683095 370.55366,21.362537 359.2403,21.362537 z m -1.31652,20.040402 c 5.02949,0.131024 9.09163,3.965079 17.05628,9.127893 l 72.78909,53.977438 c 0.79681,0.51671 1.55569,1.05573 2.25272,1.60908 0.69703,0.55327 1.33373,1.1401 1.9309,1.72612 0.5972,0.58495 1.14004,1.17206 1.63834,1.78461 0.49726,0.61244 0.94845,1.23853 1.34577,1.8724 0.39844,0.6349 0.75476,1.27981 1.05322,1.93089 0.29867,0.65226 0.53281,1.32502 0.7314,1.98941 0.19976,0.66341 0.36832,1.31895 0.46811,1.98941 0.0999,0.67165 0.14627,1.34516 0.14627,2.01867 l -43.12343,-20.830311 -4.30065,32.562001 -23.72668,-11.11731 -36.62858,24.45807 -14.01366,-48.33101 -18.05098,42.275 -50.40821,5.03205 0.55587,-22.4394 c 0,-5.38972 29.05729,-43.122051 46.75119,-52.105048 l 32.38646,-23.258575 c 4.77873,-3.097693 8.12887,-4.35 11.14657,-4.271388 z m -66.9964,220.210391 c 22.94411,5.95032 48.47561,13.75705 68.95655,13.89664 l 0.87768,9.21566 c -17.53811,-1.80778 -54.64815,-10.27551 -63.39789,-14.74506 l -6.43634,-8.36724 z"
         id="path831" />
    </g>
    <text
       xml:space="preserve"
       style="font-size:6.96932268px;font-style:normal;font-variant:normal;font-weight:normal;font-stretch:normal;text-align:start;line-height:125%;writing-mode:lr-tb;text-anchor:start;opacity:0.5;fill:#000000;fill-opacity:1;stroke:none;font-family:sans-serif"
       x="3.6203022"
       y="-326.81229"
       id="text7519"
       sodipodi:linespacing="125%"
       transform="matrix(0,1,-1,0,0,0)"><tspan
         sodipodi:role="line"
         id="tspan7521"
         x="3.6203022"
         y="-326.81229"
         style="letter-spacing:0.29056421">Essayez <tspan
   style="font-weight:bold"
   id="tspan7523">Ctrl+flèche <tspan
   style="font-weight:normal"
   id="tspan2979">pour vous déplacer </tspan></tspan></tspan></text>
    <path
       transform="matrix(0.614962,4.549602e-2,6.191898e-2,-0.451855,112.4558,237.6044)"
       style="opacity:0.5;color:#000000;fill:#000000;fill-opacity:1;fill-rule:evenodd;stroke:none;stroke-width:4.32172871;marker:none;visibility:visible;display:inline;overflow:visible"
       d="m 338.52736,197.82364 -13.1081,-1.27087 7.65466,-10.71652 z"
       id="path7527" />
    <path
       style="font-size:21.46311378px;font-style:italic;font-variant:normal;font-weight:normal;font-stretch:normal;text-align:end;line-height:100%;writing-mode:lr-tb;text-anchor:end;fill:#ffffff;fill-opacity:1;stroke:none"
       d="m 120.82118,12.812044 0.1105,-0.448026 c 0.96986,-0.03895 1.95203,-0.103878 2.94646,-0.194796 -0.0982,0.389602 -0.14732,0.577904 -0.14731,0.564905 l -0.33148,1.207728 -0.36831,1.402522 -0.90236,3.564745 c -0.72436,2.856993 -1.08652,4.688063 -1.08652,5.493213 0,0.38959 0.0921,0.584384 0.27623,0.584384 0.27009,0 0.58929,-0.305177 0.95761,-0.915535 0.2087,-0.35063 0.49721,-0.947999 0.86553,-1.792112 l 0.38672,0.155835 c -0.78573,2.116771 -1.66354,3.175156 -2.63342,3.175156 -0.3192,0 -0.57702,-0.12337 -0.77344,-0.370111 -0.19644,-0.24674 -0.29466,-0.564904 -0.29465,-0.954494 -1e-5,-0.259725 0.0491,-0.694766 0.14732,-1.305125 -0.38059,0.727235 -0.69365,1.25318 -0.93919,1.577838 -0.54019,0.701261 -1.18473,1.051892 -1.93362,1.051892 -0.61386,0 -1.11722,-0.233754 -1.51008,-0.701262 -0.38058,-0.480493 -0.57088,-1.097342 -0.57088,-1.850551 0,-1.441477 0.51563,-2.837506 1.54691,-4.188087 1.04354,-1.363556 2.11777,-2.045337 3.2227,-2.045345 0.50336,8e-6 0.92691,0.279214 1.27068,0.837618 l 0.92077,-3.506307 c 0.12276,-0.467496 0.18414,-0.759687 0.18415,-0.876577 -10e-6,-0.311659 -0.44811,-0.467495 -1.34432,-0.467508 m -0.92078,4.460801 c -0.78573,-0.05194 -1.58988,0.811653 -2.41244,2.590771 -0.76117,1.63628 -1.14175,2.960883 -1.14175,3.973814 0,0.38959 0.0859,0.707755 0.25781,0.954494 0.18415,0.233755 0.41743,0.350631 0.69979,0.350631 0.71206,0 1.39344,-0.629836 2.04412,-1.88951 0.87167,-1.701204 1.33819,-3.233588 1.39958,-4.597156 0.0368,-0.883063 -0.24555,-1.344077 -0.84711,-1.383044 m 9.24381,5.376337 0.36831,0.194794 c -0.82256,1.844059 -1.71878,2.766087 -2.68866,2.766087 -0.34375,0 -0.62613,-0.129864 -0.84711,-0.38959 -0.22099,-0.272712 -0.33149,-0.616849 -0.33149,-1.032413 0,-0.285697 0.0368,-0.551917 0.1105,-0.798659 0.0737,-0.246737 0.27623,-0.798655 0.60772,-1.655755 l 0.69978,-1.772633 c 0.41742,-1.051885 0.62613,-1.759639 0.62613,-2.123263 0,-0.259718 -0.10436,-0.389581 -0.31306,-0.389589 -0.42971,8e-6 -1.019,0.714255 -1.76789,2.142743 l -0.36831,-0.233755 c 0.87166,-1.688214 1.70649,-2.532323 2.5045,-2.532331 0.33148,8e-6 0.60157,0.129871 0.81029,0.389589 0.2087,0.259734 0.31305,0.597378 0.31306,1.012933 -10e-6,0.493486 -0.25168,1.409022 -0.75504,2.746606 l -0.77345,2.045346 c -0.3192,0.844113 -0.4788,1.39603 -0.4788,1.655755 0,0.233754 0.0982,0.350632 0.29465,0.350632 0.23326,0 0.53405,-0.220767 0.90235,-0.662303 0.3806,-0.45452 0.74276,-1.025917 1.08652,-1.714194 m -0.27623,-10.226726 c 0.23325,1.2e-5 0.42969,0.09092 0.58929,0.272713 0.17188,0.168834 0.25782,0.376615 0.25782,0.623342 0,0.246752 -0.0859,0.461026 -0.25782,0.642824 -0.1596,0.181819 -0.35604,0.272723 -0.58929,0.272713 -0.23326,10e-6 -0.43584,-0.09089 -0.60771,-0.272713 -0.17188,-0.181798 -0.25782,-0.396072 -0.25782,-0.642824 0,-0.246727 0.0859,-0.454508 0.25782,-0.623342 0.17187,-0.181796 0.37445,-0.272701 0.60771,-0.272713 m 8.3563,0.389588 0.1105,-0.448026 c 0.96987,-0.03895 1.95203,-0.103878 2.94648,-0.194796 -0.0982,0.389602 -0.14734,0.577904 -0.14733,0.564905 l -0.33148,1.207728 -0.36831,1.402522 -0.90236,3.564745 c -0.72435,2.856993 -1.08651,4.688063 -1.08651,5.493213 0,0.38959 0.0921,0.584384 0.27623,0.584384 0.27009,0 0.58928,-0.305177 0.9576,-0.915535 0.2087,-0.35063 0.49722,-0.947999 0.86554,-1.792112 l 0.38672,0.155835 c -0.78573,2.116771 -1.66355,3.175156 -2.63342,3.175156 -0.3192,0 -0.57703,-0.12337 -0.77345,-0.370111 -0.19644,-0.24674 -0.29465,-0.564904 -0.29464,-0.954494 -1e-5,-0.259725 0.0491,-0.694766 0.14732,-1.305125 -0.3806,0.727235 -0.69365,1.25318 -0.93919,1.577838 -0.5402,0.701261 -1.18474,1.051892 -1.93363,1.051892 -0.61386,0 -1.11721,-0.233754 -1.51008,-0.701262 -0.38058,-0.480493 -0.57088,-1.097342 -0.57088,-1.850551 0,-1.441477 0.51563,-2.837506 1.54691,-4.188087 1.04354,-1.363556 2.11778,-2.045337 3.22271,-2.045345 0.50335,8e-6 0.92691,0.279214 1.27067,0.837618 l 0.92078,-3.506307 c 0.12275,-0.467496 0.18415,-0.759687 0.18416,-0.876577 -1e-5,-0.311659 -0.44813,-0.467495 -1.34434,-0.467508 m -0.92078,4.460801 c -0.78572,-0.05194 -1.58987,0.811653 -2.41243,2.590771 -0.76117,1.63628 -1.14176,2.960883 -1.14176,3.973814 0,0.38959 0.0859,0.707755 0.25783,0.954494 0.18414,0.233755 0.41741,0.350631 0.69978,0.350631 0.71207,0 1.39343,-0.629836 2.04412,-1.88951 0.87166,-1.701204 1.3382,-3.233588 1.39958,-4.597156 0.0368,-0.883063 -0.24555,-1.344077 -0.84712,-1.383044 m 11.54138,-0.194794 1.3075,0 c -0.30692,0.870091 -0.72434,2.142748 -1.25225,3.817977 -0.56475,1.805102 -0.84712,3.032308 -0.84711,3.681622 -1e-5,0.272713 0.0982,0.409069 0.29464,0.409069 0.4297,0 1.03126,-0.883069 1.80472,-2.649209 l 0.40514,0.175315 c -0.51563,1.181757 -0.95761,1.993401 -1.32591,2.434935 -0.36832,0.441534 -0.78574,0.662303 -1.25225,0.662303 -0.76118,0 -1.14177,-0.363618 -1.14177,-1.090851 0,-0.194794 0.0553,-0.590876 0.16574,-1.188248 -0.87166,1.532385 -1.80472,2.298578 -2.79915,2.298578 -0.62614,0 -1.13562,-0.220768 -1.52849,-0.662303 -0.39286,-0.441534 -0.5893,-1.019424 -0.5893,-1.733673 0,-1.480437 0.55247,-2.915423 1.6574,-4.304964 1.10492,-1.402516 2.24055,-2.103776 3.40687,-2.103784 0.61385,8e-6 1.08037,0.357131 1.39957,1.071371 l 0.29465,-0.818138 m -1.5469,0.233753 c -0.36831,-0.02596 -0.79801,0.201297 -1.28909,0.681782 -0.4788,0.467515 -0.92691,1.097351 -1.34432,1.88951 -0.83485,1.571349 -1.25226,2.889458 -1.25226,3.954334 0,0.831125 0.30693,1.246687 0.92077,1.246687 0.99444,0 1.93363,-1.032412 2.81758,-3.097238 0.60156,-1.402517 0.93919,-2.564792 1.01285,-3.486827 0.0246,-0.337636 -0.043,-0.616842 -0.20257,-0.837616 -0.15961,-0.22076 -0.38059,-0.337637 -0.66296,-0.350632 m 9.78932,5.337378 0.36831,0.233754 c -0.88395,1.83107 -1.96433,2.746606 -3.24113,2.746606 -0.67524,0 -1.22157,-0.240248 -1.63898,-0.720741 -0.41741,-0.480493 -0.62613,-1.103836 -0.62613,-1.87003 0,-0.766189 0.17188,-1.571341 0.51564,-2.415455 0.35603,-0.857091 0.83483,-1.616791 1.43641,-2.279099 0.90849,-1.012926 1.84768,-1.519391 2.81756,-1.519399 0.4297,8e-6 0.77346,0.110391 1.03127,0.331151 0.27009,0.207789 0.40514,0.480502 0.40515,0.818137 -10e-6,0.220775 -0.0675,0.409076 -0.20258,0.564906 -0.13505,0.155843 -0.30079,0.23376 -0.49721,0.233753 -0.17188,7e-6 -0.32535,-0.06492 -0.46039,-0.194794 -0.12277,-0.142843 -0.18417,-0.305172 -0.18416,-0.486988 -1e-5,-0.116869 0.0368,-0.233746 0.1105,-0.35063 0.0737,-0.116869 0.11049,-0.194787 0.1105,-0.233753 -1e-5,-0.168815 -0.13506,-0.253226 -0.40515,-0.253234 -0.54019,8e-6 -1.08038,0.435049 -1.62056,1.305125 -0.42969,0.688281 -0.81029,1.558364 -1.14177,2.61025 -0.33148,1.038909 -0.49721,1.896005 -0.49721,2.571292 0,0.88307 0.36217,1.324604 1.08651,1.324604 0.9576,0 1.83541,-0.80515 2.63342,-2.415455 m 5.13624,-8.317738 1.28908,0 -0.79187,2.746607 1.45483,0 -0.12891,0.448028 -1.45483,0 -0.34989,1.12981 c -0.29465,0.960993 -0.60771,2.123268 -0.93919,3.486827 -0.33147,1.350578 -0.49722,2.13625 -0.49722,2.357016 0,0.298686 0.12891,0.448029 0.38673,0.448028 0.45425,1e-6 1.00056,-0.662301 1.63898,-1.986907 0.0614,-0.142847 0.15346,-0.318162 0.27623,-0.525946 l 0.36831,0.194796 c -0.47881,1.051893 -0.83484,1.72718 -1.0681,2.025864 -0.50336,0.636331 -1.0374,0.954496 -1.60215,0.954496 -0.38058,0 -0.68751,-0.12337 -0.92078,-0.370111 -0.23325,-0.259726 -0.34989,-0.590877 -0.34989,-0.993453 0,-0.363615 0.0552,-0.772684 0.16574,-1.227207 0.12278,-0.506464 0.51564,-1.96093 1.1786,-4.363403 l 0.31306,-1.12981 -1.47323,0 0.14731,-0.448028 1.47324,0 0.88395,-2.746607 m 7.10267,8.317738 0.3683,0.194794 c -0.82256,1.844059 -1.71877,2.766087 -2.68865,2.766087 -0.34376,0 -0.62614,-0.129864 -0.84711,-0.38959 -0.221,-0.272712 -0.33149,-0.616849 -0.33149,-1.032413 0,-0.285697 0.0368,-0.551917 0.11049,-0.798659 0.0737,-0.246737 0.27624,-0.798655 0.60771,-1.655755 l 0.69979,-1.772633 c 0.41742,-1.051885 0.62613,-1.759639 0.62614,-2.123263 -1e-5,-0.259718 -0.10436,-0.389581 -0.31307,-0.389589 -0.42971,8e-6 -1.019,0.714255 -1.76789,2.142743 l -0.36832,-0.233755 c 0.87167,-1.688214 1.7065,-2.532323 2.50452,-2.532331 0.33148,8e-6 0.60157,0.129871 0.81027,0.389589 0.20872,0.259734 0.31307,0.597378 0.31307,1.012933 0,0.493486 -0.25168,1.409022 -0.75503,2.746606 l -0.77345,2.045346 c -0.3192,0.844113 -0.47881,1.39603 -0.4788,1.655755 -1e-5,0.233754 0.0982,0.350632 0.29463,0.350632 0.23328,0 0.53406,-0.220767 0.90237,-0.662303 0.38058,-0.45452 0.74276,-1.025917 1.08652,-1.714194 m -0.27624,-10.226726 c 0.23326,1.2e-5 0.42969,0.09092 0.58929,0.272713 0.17188,0.168834 0.25782,0.376615 0.25783,0.623342 -1e-5,0.246752 -0.0859,0.461026 -0.25783,0.642824 -0.1596,0.181819 -0.35603,0.272723 -0.58929,0.272713 -0.23327,10e-6 -0.43583,-0.09089 -0.60771,-0.272713 -0.17187,-0.181798 -0.25783,-0.396072 -0.25782,-0.642824 -1e-5,-0.246727 0.0859,-0.454508 0.25782,-0.623342 0.17188,-0.181796 0.37444,-0.272701 0.60771,-0.272713 m 7.3369,10.226726 0.36831,0.233754 c -0.88396,1.83107 -1.96433,2.746606 -3.24114,2.746606 -0.67523,0 -1.22156,-0.240248 -1.63898,-0.720741 -0.41741,-0.480493 -0.62612,-1.103836 -0.62612,-1.87003 0,-0.766189 0.17188,-1.571341 0.51564,-2.415455 0.35603,-0.857091 0.83482,-1.616791 1.4364,-2.279099 0.90849,-1.012926 1.84769,-1.519391 2.81757,-1.519399 0.42969,8e-6 0.77345,0.110391 1.03127,0.331151 0.27008,0.207789 0.40514,0.480502 0.40515,0.818137 -1e-5,0.220775 -0.0675,0.409076 -0.20258,0.564906 -0.13506,0.155843 -0.30079,0.23376 -0.49721,0.233753 -0.17189,7e-6 -0.32536,-0.06492 -0.46039,-0.194794 -0.12278,-0.142843 -0.18417,-0.305172 -0.18416,-0.486988 -10e-6,-0.116869 0.0368,-0.233746 0.11049,-0.35063 0.0737,-0.116869 0.11049,-0.194787 0.1105,-0.233753 -10e-6,-0.168815 -0.13505,-0.253226 -0.40515,-0.253234 -0.54019,8e-6 -1.08037,0.435049 -1.62056,1.305125 -0.42969,0.688281 -0.81028,1.558364 -1.14176,2.61025 -0.33148,1.038909 -0.49722,1.896005 -0.49722,2.571292 0,0.88307 0.36217,1.324604 1.08651,1.324604 0.95761,0 1.83541,-0.80515 2.63343,-2.415455 m 6.33323,0 0.36832,0.194794 c -0.82257,1.844059 -1.71878,2.766087 -2.68867,2.766087 -0.34376,0 -0.62612,-0.129864 -0.84711,-0.38959 -0.22098,-0.272712 -0.33148,-0.616849 -0.33148,-1.032413 0,-0.285697 0.0368,-0.551917 0.1105,-0.798659 0.0736,-0.246737 0.27622,-0.798655 0.60771,-1.655755 l 0.69979,-1.772633 c 0.4174,-1.051885 0.62612,-1.759639 0.62613,-2.123263 -1e-5,-0.259718 -0.10436,-0.389581 -0.31308,-0.389589 -0.42969,8e-6 -1.01898,0.714255 -1.76788,2.142743 l -0.36831,-0.233755 c 0.87167,-1.688214 1.7065,-2.532323 2.50451,-2.532331 0.33147,8e-6 0.60157,0.129871 0.81028,0.389589 0.20871,0.259734 0.31306,0.597378 0.31307,1.012933 -1e-5,0.493486 -0.25169,1.409022 -0.75503,2.746606 l -0.77346,2.045346 c -0.31921,0.844113 -0.47881,1.39603 -0.4788,1.655755 -1e-5,0.233754 0.0982,0.350632 0.29465,0.350632 0.23325,0 0.53404,-0.220767 0.90236,-0.662303 0.38058,-0.45452 0.74275,-1.025917 1.0865,-1.714194 m -0.27622,-10.226726 c 0.23326,1.2e-5 0.42969,0.09092 0.5893,0.272713 0.17187,0.168834 0.2578,0.376615 0.25781,0.623342 -1e-5,0.246752 -0.0859,0.461026 -0.25781,0.642824 -0.15961,0.181819 -0.35604,0.272723 -0.5893,0.272713 -0.23328,10e-6 -0.43585,-0.09089 -0.60772,-0.272713 -0.17188,-0.181798 -0.25781,-0.396072 -0.25781,-0.642824 0,-0.246727 0.0859,-0.454508 0.25781,-0.623342 0.17187,-0.181796 0.37444,-0.272701 0.60772,-0.272713 m 7.26322,10.382562 0.34989,0.253232 c -1.0681,1.701209 -2.1853,2.551813 -3.35161,2.551813 -0.62613,0 -1.13564,-0.201289 -1.52849,-0.603864 -0.39286,-0.415562 -0.5893,-0.954494 -0.5893,-1.616798 0,-1.155779 0.39287,-2.408957 1.17859,-3.759539 1.09266,-1.870022 2.33263,-2.805036 3.71994,-2.805044 0.40513,8e-6 0.73661,0.129871 0.99443,0.389589 0.25781,0.259734 0.38672,0.590885 0.38673,0.993454 -1e-5,0.948008 -0.62,1.844062 -1.85997,2.688167 -0.40514,0.272717 -1.31365,0.714252 -2.7255,1.324605 -0.20871,0.792168 -0.31306,1.402524 -0.31306,1.831071 0,0.714248 0.31306,1.071371 0.9392,1.071371 0.45424,0 0.87779,-0.162328 1.27066,-0.486987 0.40514,-0.337643 0.91463,-0.947999 1.52849,-1.83107 m -3.27796,-1.110331 c 0.23326,-0.103887 0.51563,-0.240242 0.84711,-0.409069 0.71206,-0.389586 1.3075,-0.909037 1.78631,-1.558358 0.49107,-0.64931 0.73661,-1.259667 0.73662,-1.831071 -1e-5,-0.415554 -0.17802,-0.623336 -0.53405,-0.623344 -0.50337,8e-6 -1.00671,0.389598 -1.51007,1.168769 -0.49108,0.766199 -0.93306,1.850555 -1.32592,3.253073 m 7.18339,-8.882643 0.11048,-0.448026 c 0.92078,-0.03895 1.96433,-0.103878 3.13064,-0.194796 -0.0982,0.350644 -0.17188,0.603876 -0.22099,0.7597 -0.13505,0.402588 -0.32533,1.012944 -0.57087,1.831071 l -1.49166,5.142582 c -0.71206,2.454417 -1.0681,3.96083 -1.06809,4.519239 -1e-5,0.402577 0.11049,0.603865 0.33147,0.603865 0.30693,0 0.68751,-0.350631 1.14176,-1.051893 0.23327,-0.363614 0.49722,-0.844108 0.79188,-1.441481 l 0.42355,0.214274 c -0.36832,0.71425 -0.64455,1.220716 -0.8287,1.5194 -0.56475,0.896056 -1.20928,1.344084 -1.93363,1.344084 -0.36831,0 -0.6691,-0.14285 -0.90236,-0.42855 -0.23326,-0.285697 -0.34989,-0.649314 -0.34989,-1.09085 0,-0.545423 0.20871,-1.538876 0.62613,-2.98036 l 1.62055,-5.59061 c 0.35603,-1.233689 0.53406,-1.928457 0.53406,-2.084304 0,-0.233742 -0.0859,-0.389578 -0.25782,-0.467508 -0.17188,-0.09089 -0.53405,-0.142837 -1.08651,-0.155837"
       id="text1896"
       sodipodi:nodetypes="cccccccsssccssscsscsssccscccssscscccssssccssccsssccsssccsssssssccccccccsssccssscsscsssccscccssscscccsssccssscssscscccssssssscccsssssssssssssssssssccccccccssscccsssssccccccccssssccssccsssccsssccssssssscccssssssssssssssssssscccssssccssccsssccsssccssssssscccsssssssscsssccccsssccccsccsssccssssccssc"
       inkscape:connector-curvature="0" />
    <use
       x="0"
       y="0"
       xlink:href="#text1896"
       id="use1901"
       transform="matrix(3.16792,0,0,3.16792,-274.0839,-31.03953)"
       width="320"
       height="1052.3622"
       style="opacity:0.0786517;color:black;fill:black;fill-opacity:1;fill-rule:nonzero;stroke:none;stroke-width:0.74578226;stroke-linecap:butt;stroke-linejoin:miter;marker:none;marker-start:none;marker-mid:none;marker-end:none;stroke-miterlimit:4;stroke-dasharray:none;stroke-dashoffset:0;stroke-opacity:1;visibility:visible;display:inline;overflow:visible" />
  </g>
</svg>
